BT001,Ben xe Bien Hoa,2021-03-17,2021-03-17,6,56000,OS180015,2021-03-16
BT002,Ben xe Quan 8,2021-04-11,2021-04-11,5,42000,OS180019,2021-04-09
BT003,Ben cong truong Me Linh,2021-02-07,2021-02-07,12,33000,OS200011,2021-02-07
BT004,Ben xe Cho Lon,2021-04-05,2021-04-05,9,31000,OS200011,2021-04-01
BT005,Ben truong dai hoc Nong Lam,2021-02-22,2021-02-22,23,47000,OS180015,2021-02-15
BT006,Ben cong vien 23/9,2021-05-26,2021-05-26,11,21000,OS180019,2021-05-25
