employee_id,first_name,last_name,age,start_date,base_salary,current_salary,data_of_birth,email,sex
AT170006,An,Nguyen Dinh,26,2017-05-06,5000,6500,1995-12-12,khongtran040@gmail.com,M
AT170013,Uy,Le Tuan,23,2017-01-13,5000,7000,1998-06-11,letuanuy@gmail.com,M
AT170026,Dat,Vo Tran Minh,26,2017-04-09,5000,6500,1995-03-08,votranminh@gmail.com,M
AT170033,Hieu,Le Trung,23,2017-01-13,5000,7000,1995-12-12,lthieupttvy@gmail.com,M
AT170046,Tien,Hoang Minh,26,2017-04-09,5000,6500,1998-06-11,tienminh0801@gmail.com,M
AT170053,Tri,Vo Minh,23,2017-01-13,5000,7000,1995-03-08,trivm2472@gmail.com,M
AT170063,Bac,Ngo Thi Ha,23,2017-01-11,5000,7000,1995-12-12,ngothihabac2772001@gmail.com,M
AT180005,Giang,Tran Thi Linh,21,2017-05-06,5000,6500,1998-06-11,giang.tran1812006@gmail.com,F
AT180025,Dat,Nguyen Ke,21,2017-01-13,5000,6500,1995-03-08,kedat30062001@gmail.com,F
AT180035,Hieu,Phan Vu Hoang,26,2017-04-09,5000,6500,1995-12-12,hieu8602@gmail.com,M
AT180039,Huy,Vu Quoc,23,2017-01-13,5000,7000,1998-06-11,huyvqnc@gmail.com,M
AT180045,Thuong,Le Dac,21,2017-04-09,5000,6500,1995-03-08,ledacthuong2210@gmail.com,F
AT180055,Uy,Le Tuan,26,2017-01-13,5000,6500,1995-12-12,letuanuy123@gmail.com,M
AT180059,Vinh,Nguyen Phuc,23,2017-01-11,5000,7000,1998-06-11,nguyenphucvinh05072001@gmail.com,M
AT180064,Bang,Nguyen Thi Duyen,26,2017-05-06,5000,6500,1995-03-08,ntdb.542001@gmail.com,M
AT180066,Bao,Nguyen Ngo Gia,23,2017-01-13,5000,7000,1995-12-12,giabao04082001@gmail.com,M
AT190009,My,Nguyen Tran Dieu,20,2017-04-09,5000,6000,1998-06-11,dmyymd@gmail.com,F
AT190020,Quynh,Ngo Thi Xuan,22,2017-01-13,5000,6500,1995-03-08,xuanquynh31799@gmail.com,F
AT190029,Dung,Tran Manh,20,2017-04-09,5000,6000,1995-12-12,htxx1104@gmail.com,F
AT190040,Kha,Tran Quang,22,2017-01-13,5000,6500,1998-06-11,tqk19112001@gmail.com,F
AT190049,Toan,Lam Thien,20,2017-01-11,5000,6000,1995-03-08,lamtoan557@gmail.com,F
AT190060,Y,Le Thi Nhu,22,2017-05-06,5000,6500,1995-12-12,imyour2603@gmail.com,F
AT190062,Anh,Nguyen Quang,20,2017-01-13,5000,6000,1998-06-11,anhdn2511@gmail.com,M
AT20001,Hang,Tran Bich,20,2017-04-09,5000,6500,1995-03-08,peuniiicorn@gmail.com,F
AT200021,Binh,Cao Thanh,20,2017-01-13,5000,6500,1995-12-12,binh17122001@gmail.com,F
AT200041,Thanh,Dang Quoc,20,2017-04-09,5000,6500,1998-06-11,dangthanh3819@gmail.com,F
AT210017,Ngan,Pham Thi Thuy,24,2017-01-13,5000,5500,1995-03-08,phamngan910@gmail.com,F
AT210037,Hoang,Vu Huy,24,2017-01-11,5000,5500,1995-12-12,hoangvu130301@gmail.com,F
AT210057,Viet,Huynh Tran,24,2017-05-06,5000,5500,1998-06-11,viethuynh713@gmail.com,F
AT210065,Bao,Dang Hoai,24,2017-01-13,5000,5500,1995-03-08,dhoaibao12a6@gmail.com,F
DR170002,Bao,Nguyen Chi,22,2017-04-09,10000,11500,1995-12-12,bao.nguyenquang_ngai@gmail.com,M
DR170004,Do,Nguyen Thanh,25,2017-01-13,10000,13000,1998-06-11,nguyenthanhdo123@gmail.com,M
DR170022,Chuan,Le Minh,22,2017-04-09,10000,11500,1995-03-08,lechuan2001@gmail.com,M
DR170024,Dat,Huynh Tuan,25,2017-01-13,10000,13000,1995-12-12,huynhtuandat05december@gmail.com,M
DR170042,Thanh,Hoang Dinh,22,2017-01-11,10000,11500,1998-06-11,thanh29032000@gmail.com,M
DR170044,Thien,Do Hoang,25,2017-05-06,10000,13000,1995-03-08,lebongsaudong@gmail.com,M
DR180003,Cong,Vo Chi,31,2017-01-13,10000,10500,1995-12-12,cong.vovochicong@gmail.com,M
DR180018,Thien,Do Hoang,20,2017-04-09,10000,12000,1998-06-11,lebongsaudong@gmail.com,M
DR180023,Dang,Nguyen Hai,31,2017-01-13,10000,10500,1995-03-08,ndang9a1@gmail.com,M
DR180038,Hung,Trinh Duy,20,2017-04-09,10000,12000,1995-12-12,tdhtp2016@gmail.com,M
DR180043,Thanh,Pham Phu,31,2017-01-13,10000,10500,1998-06-11,phamphuthanhksqp@gmail.com,M
DR180058,Viet,Tran Quoc,20,2017-01-11,10000,12000,1995-03-08,tranquocviet26701@gmail.com,M
DR180061,Lam,Nguyen Hoang,20,2017-05-06,10000,12000,1995-12-12,hoanglam55766@gmail.com,F
DR190008,Hao,Vo Manh,25,2017-01-13,10000,12000,1998-06-11,darksaber0909@gmail.com,M
DR190010,Nhu,Pham Le Tam,20,2017-04-09,10000,14000,1995-03-08,plt.nhu@gmail.com,F
DR190014,Toan,Le Khanh,30,2017-01-13,10000,11400,1995-12-12,lekhanhtoan812@gmail.com,M
DR190028,Duc,Nguyen Viet,25,2017-04-09,10000,12000,1998-06-11,duc.nv291@gmail.com,M
DR190030,Duy,Nguyen The,20,2017-01-13,10000,14000,1995-03-08,duyquangsr@gmail.com,F
DR190034,Hieu,Nguyen Xuan,30,2017-01-11,10000,11400,1995-12-12,godjungle0908@gmail.com,M
DR190048,Tien,Nguyen Huynh,25,2017-05-06,10000,12000,1998-06-11,huynhtien9258@gmail.com,M
DR190050,Toan,Le Khanh,20,2017-01-13,10000,14000,1995-03-08,lekhanhtoan123@gmail.com,F
DR190054,Tu,Phan Anh,30,2017-04-09,10000,11400,1995-12-12,anhtu12st@gmail.com,M
DR200012,Long,Nguyen Thanh,23,2017-01-13,10000,12500,1998-06-11,thanhlong090101@gmail.com,M
DR200016,Phuoc,Le Huy,22,2017-04-09,10000,11500,1995-03-08,lehuyphuoc0105@gmail.com,M
DR200031,Hao,Vo Manh,21,2017-01-13,10000,14000,1995-12-12,darksaber0909@gmail.com,M
DR200032,Hien,Nguyen Minh,23,2017-01-11,10000,12500,1998-06-11,minhhien24022001@gmail.com,M
DR200036,Hoang,Nguyen Tran,22,2017-05-06,10000,11500,1995-03-08,hoangKui2001@gmail.com,M
DR200051,Toan,Phan Dinh Minh,21,2017-01-13,10000,14000,1995-12-12,pdminhtoan@gmail.com,M
DR200052,Tri,Ngo Duc,23,2017-04-09,10000,12500,1998-06-11,ngoductri123@gmail.com,M
DR200056,Vi,Quang Chan,22,2017-01-13,10000,11500,1995-03-08,exstarquang@gmail.com,M
DR301601,Loc,Tran Nguyen,29,2017-04-09,10000,12000,1995-12-12,loc.trannguyen@gmail.com,M
DR301602,Phuoc,Vu Tan,27,2017-01-13,10000,12000,1998-06-11,phuoc.vutan@gmail.com,M
DR301701,Thanh,Nguyen Truong,27,2017-01-11,10000,12000,1995-03-08,ntthanh@gmail.com,M
DR301702,Huy,Nguyen Duc,31,2017-05-06,10000,14000,1995-12-12,ndhuy@gmail.com,M
DR301801,Cuong,Dang Thinh,29,2017-01-13,10000,11400,1998-06-11,dtcuong@gmail.com,M
DR301802,Quang,Ho Huy,26,2017-04-09,10000,12000,1995-03-08,hhquang@gmail.com,M
DR301901,Phong,Nguyen Viet,31,2017-01-13,10000,14000,1995-12-12,nvietphong@gmail.com,M
DR301902,Huu,Nguyen Quang,28,2017-04-09,10000,11400,1998-06-11,nquanghuu@gmail.com,M
DR302001,Khoi,Lam Huu,26,2017-01-13,10000,12000,1995-03-08,lhkhoi@gmail.com,M
DR302002,Phuoc,Bui Thien,29,2017-01-11,10000,14000,1995-12-12,btphuoc@gmail.com,M
DR302101,Lam,Le Quang,28,2017-05-06,10000,11400,1998-06-11,lquanglam@gmail.com,M
DR302102,Tung,Nguyen Thanh,31,2017-01-13,10000,12500,1995-03-08,ntttung@gmail.com,M
DR302201,Thong,Pham Minh,30,2017-04-09,10000,11500,1995-12-12,phamminhthong@gmail.com,M
DR302202,Thang,Tran Quyet,29,2017-01-13,10000,13000,1998-06-11,tqthang@gmail.com,M
DR302301,Trung,Ngo Quang,29,2017-04-09,10000,10500,1995-03-08,ngoquangtrung@gmail.com,M
DR302302,Tan,Tran Minh,28,2017-01-13,10000,12000,1995-12-12,tminhtan@gmail.com,M
DR302401,Linh,Le Hoang,26,2017-01-11,10000,10500,1998-06-11,h.linhhhhh@gmail.com,M
DR302402,Khai,Tran Van,27,2017-05-06,10000,12000,1995-03-08,vankhai123@gmail.com,M
DR302501,My,Le Phuoc,27,2017-01-13,10000,11400,1995-12-12,phuocmydn@gmail.com,M
DR302502,Hoang,Pham Huy,29,2017-04-09,10000,12000,1998-06-11,huyhoangpro@gmail.com,M
EE210007,Duy,Nguyen The,23,2017-01-13,5000,5000,1995-03-08,duyquangsr@gmail.com,M
EE210027,Do,Doan Tay,23,2017-04-09,10000,11000,1995-12-12,baikadodo2001@gmail.com,M
EE210047,Tien,Le Ngoc,23,2017-01-13,10000,11000,1998-06-11,lengoctienbrvt@gmail.com,M
OS180015,Quan,Nguyen Thuc,26,2017-01-11,12000,13500,1995-03-08,quannguyenthuc06@gmail.com,M
OS180019,Quyen,Khong Manh,23,2017-05-06,12000,15000,1995-12-12,quyenmanhkhong@gmail.com,M
OS200011,Huy,Pham Ngoc,21,2017-01-13,12000,14000,1998-06-11,wuyjii1510@gmail.com,M
