employee_id,phone_number
AT170006,976112114
AT170013,385412555
AT170026,933521125
AT170033,975022802
AT170046,979569112
AT170053,582113112
AT170063,383739400
AT180005,989999999
AT180025,792041013
AT180035,587223601
AT180039,791332552
AT180045,334229830
AT180055,784256930
AT180059,356418349
AT180064,338441559
AT180066,373654250
AT190009,583629995
AT190020,979552114
AT190029,903441859
AT190040,978506313
AT190049,913250014
AT190060,857310026
AT190062,862496664
AT20001,348174865
AT200021,851662550
AT200041,743351126
AT210017,902601004
AT210037,903030303
AT210057,913131313
AT210065,979596413
DR170002,975588112
DR170004,338496963
DR170022,583633730
DR170024,978554120
DR170042,963316613
DR170044,979104203
DR180003,933641778
DR180018,913224951
DR180023,573226450
DR180038,558450923
DR180043,338411224
DR180058,903441851
DR180061,345964903
DR190008,584631148
DR190010,903000548
DR190014,792041000
DR190028,857310060
DR190030,797411224
DR190034,852766325
DR190048,379648855
DR190050,909636321
DR190054,558411518
DR200012,333554810
DR200016,902085661
DR200031,797420322
DR200032,856244155
DR200036,856344517
DR200051,593688540
DR200052,336214512
DR200056,333336584
DR301601,932137593
DR301602,120658291
DR301701,789452830
DR301702,557301023
DR301801,932568503
DR301802,935583027
DR301901,965748104
DR301902,175840212
DR302001,784639856
DR302002,946583012
DR302101,946684021
DR302102,945673522
DR302201,169696969
DR302202,956482848
DR302301,365769802
DR302302,657587342
DR302401,946574923
DR302402,758594739
DR302501,758493234
DR302502,912376843
EE210007,903333313
EE210027,901541224
EE210047,583624579
OS180015,341286951
OS180019,512974441
OS200011,903311422
