employee_id,address
AT170006,"776/3 Cach Mang Thang 8, Phuong 5, Tan Binh, Thanh Pho Ho Chi Minh"
AT170013,"1237/31 Hoang Sa, Phuong 5, Tan Binh, Thanh Pho Ho Chi Minh"
AT170026,"389 Nguyen Thai Binh, Phuong 12, Tan Binh, Thanh Pho Ho Chi Minh"
AT170033,"4 Nui Thanh, Phuong 13, Tan Binh, Thanh Pho Ho Chi Minh"
AT170046,"52/30 Thoai Ngoc Hau, Hoa Thanh, Tan Phu, Thanh Pho Ho Chi Minh"
AT170053,"14 Pham Van Dong, Phuong 3, Go Vap, Thanh Pho Ho Chi Minh"
AT170063,"12 Hoang Hoa Tham, Phuong 6, Binh Thanh, Thanh Pho Ho Chi Minh"
AT180005,"1084 Quang Trung, Phuong 8, Go Vap, Thanh Pho Ho Chi Minh"
AT180025,"82 Duong so 27, Phuong 6, Go Vap, Thanh Pho Ho Chi Minh"
AT180035,"12 Hem so 2, Le Duc Tho, Phuong 7, Go Vap, Thanh Pho Ho Chi Minh"
AT180039,"146 Nguyen Anh Thu, Tan Chanh Hiep, Hoc Mon, Thanh Pho Ho Chi Minh"
AT180045,"34 Phan The Hien, Phuong 4, Quan 8, Thanh Pho Ho Chi Minh"
AT180055,"16F6 DN5 Dong Hung Thuan, Quan 12, Thanh Pho Ho Chi Minh"
AT180059,"35 Dong Thuan 2, Dong Hung Thuan, Quan 12, Thanh Pho Ho Chi Minh"
AT180064,"26 Tay Thanh, Tan Phu, Thanh Pho Ho Chi Minh"
AT180066,"175B Cao Thang, Phuong 12, Quan 10, Thanh Pho Ho Chi Minh"
AT190009,"299 Pham The Hien, Phuong 3, Quan 8, Thanh Pho Ho Chi Minh"
AT190020,"Nhon Duc, Nha Be, Thanh Pho Ho Chi Minh"
AT190029,"12G Bach Dang, Phuong 2, Tan Binh, Thanh Pho Ho Chi Minh"
AT190040,"565 Lac Long Quan, Phuong 10, Tan Binh, Thanh Pho Ho Chi Minh"
AT190049,"110 Toi Hieu, Hoa Thanh, Tan Phu, Thanh Pho Ho Chi Minh"
AT190060,"16 Duong so 4, An Lac A, Binh Tan, Thanh Pho Ho Chi Minh"
AT190062,"1231 Quoc lo 1A, KP5, Binh Tan, Thanh Pho Ho Chi Minh"
AT20001,"190 Duong 35A Trinh Quang Nghi, Phuong 7, Quan 8, Thanh Pho Ho Chi Minh"
AT200021,"681 Au Co, Tan Thanh, Tan Phu, Thanh Pho Ho Chi Minh"
AT200041,"170A No Trang Long , Phuong 12, Binh Thanh, Thanh Pho Ho Chi Minh"
AT210017,"110 No Trang Long, Phuong 14, Binh Thanh, Thanh Pho Ho Chi Minh"
AT210037,"110 Le Van Sy, Phuong 10, Phu Nhuan, Thanh Pho Ho Chi Minh"
AT210057,"231 Pham Van Hai, Phuong 5, Tan Binh, Thanh Pho Ho Chi Minh"
AT210065,"66 Ut Tich, Phuong 4, Tan Binh, Thanh Pho Ho Chi Minh"
DR170002,"99/1 Nguyen Thai Binh, Phuong 4, Tan Binh, Thanh Pho Ho Chi Minh"
DR170004,"58 Giai Phong, Phuong 4, Tan Binh, Thanh Pho Ho Chi Minh"
DR170022,"224/1A Xo Viet Nghe Tinh, Phuong 26, Binh Thanh, Thanh Pho Ho Chi Minh"
DR170024,"363 Dinh Bo Linh, Phuong 26, Binh Thanh, Thanh Pho Ho Chi Minh"
DR170042,"226 Hoang Dieu 2, Phuong Linh Trung, Thanh Pho Thu Duc, Thanh Pho Ho Chi Minh"
DR170044,"13 Khong Tu, Binh Tho, Thanh Pho Thu Duc, Thanh Pho Ho Chi Minh"
DR180003,"2 Dai Lo Binh Duong, Vinh Phu, Thuan An, Binh Duong"
DR180018,"6 Tan Son, Phuong 12, Go Vap, Thanh Pho Ho Chi Minh"
DR180023,"Duong Nguyen Van Qua, Dong Hung Thuan, Quan 12, Thanh Pho Ho Chi Minh"
DR180038,"7/1 To 51 KP4, Tan Thoi Nhat, Quan 12, Thanh Pho Ho Chi Minh"
DR180043,"49 Duong D9, Tay Thanh, Tan Phu, Thanh Pho Ho Chi Minh"
DR180058,"19 Duong Duc Hien, Tay Thanh, Tan Phu, Thanh Pho Ho Chi Minh"
DR180061,"246 Tan Ky Tan Quy, Tan Son Nhi, Tan Phu, Thanh Pho Ho Chi Minh"
DR190008,"5 Nguyen Cuu Dam, Tan Son Nhi, Tan Phu, Thanh Pho Ho Chi Minh"
DR190010,"105 Doc Lap, Tan Thanh, Tan Phu, Thanh Pho Ho Chi Minh"
DR190014,"2D Vuon Lai, Hoa Thanh, Tan Phu, Thanh Pho Ho Chi Minh"
DR190028,"70 Phu Tho Hoa, Phu Tho Hoa, Tan Phu, Thanh Pho Ho Chi Minh"
DR190030,"462 Luy Ban Bich, Hoa Thanh, Tan Phu, Thanh Pho Ho Chi Minh"
DR190034,"285/5 Trinh Dinh Trong, Phu Trung, Tan Phu, Thanh Pho Ho Chi Minh"
DR190048,"22 Kenh Tan Hoa, Phu Trung, Tan Phu, Thanh Pho Ho Chi Minh"
DR190050,"3 Hoa Binh, Phuong 3, Quan 11, Thanh Pho Ho Chi Minh"
DR190054,"70 Lac Long Quan, Phuong 1, Quan 11, Thanh Pho Ho Chi Minh"
DR200012,"887 Hong Bang, Phuong 9, Quan 6, Thanh Pho Ho Chi Minh"
DR200016,"8 Dao Tri, Phu My, Quan 7, Thanh Pho Ho Chi Minh"
DR200031,"739 13/2A ap 4 Phu Xuan, Nha Be, Thanh Pho Ho Chi Minh"
DR200032,"70 So 2, Binh Hung Hoa B, Binh Tan, Thanh Pho Ho Chi Minh"
DR200036,"22 Nguyen Thi Tu, ap 4, Binh Chanh, Thanh Pho Ho Chi Minh"
DR200051,"65/442C Quang Trung, Phuong 12, Go Vap, Thanh Pho Ho Chi Minh"
DR200052,"9 Nguyen Duy Cung, Phuong 12, Go Vap, Thanh Pho Ho Chi Minh"
DR200056,"39 Dong Hung Thuan, Dong Hung Thuan, Quan 12, Thanh Pho Ho Chi Minh"
DR301601,"118 Truong Dang Que, Phuong 3, Quan Go Vap, Thanh Pho Ho Chi Minh"
DR301602,"5C Nguyen Trung Truc, Phuong 5, Quan Binh Thanh, Thanh Pho Ho Chi Minh"
DR301701,"176 Nguyen Thuong Hien, Phuong 5, Quan Go Vap, Thanh Pho Ho Chi Minh"
DR301702,"65 Hoang Hoa Tham, Phuong 5, Quan Phu Nhuan, Thanh Pho Ho Chi Minh"
DR301801,"100 Tran Huy Lieu, Phuong 15, Quan Phu Nhuan, Thanh Pho Ho Chi Minh"
DR301802,"245 Nguyen Thi Nho, Phuong 15, Quan Tan Binh, Thanh Pho Ho Chi Minh"
DR301901,"86/75 Ong Ich Khiem, Phuong 5, Quan 11, Thanh Pho Ho Chi Minh"
DR301902,"236 La Xuan Oai, Phuong Tang Nhon Phu A, Quan 9, Thanh Pho Ho Chi Minh"
DR302001,"42 duong so 10, Phuong Thao Dien, Quan 2, Thanh Pho Ho Chi Minh"
DR302002,"326 Tan Cang, Phuong 25, Binh Thanh, Thanh Pho Ho Chi Minh"
DR302101,"106 Dien Bien Phu, Phuong 17, Binh Thanh, Thanh Pho Ho Chi Minh"
DR302102,"10 Nguyen Thanh Y, Phuong Da Kao, Quan 1, Thanh Pho Ho Chi Minh"
DR302201,"94 Mac Dinh Chi, Phuong Da Kao, Quan 1, Thanh Pho Ho Chi Minh"
DR302202,"230 Hai Ba Trung, Phuong Tan Dinh, Quan 1, Thanh Pho Ho Chi Minh"
DR302301,"37/4 Dinh Cong Trang, Phuong Tan Dinh, Quan 1, Thanh Pho Ho Chi Minh"
DR302302,"403 CMT8, Phuong 13, Quan 10, Thanh Pho Ho Chi Minh"
DR302401,"377/7 CMT8, Phuong 13, Quan 10, Thanh Pho Ho Chi Minh"
DR302402,"172 Hoa Hung, Phuong 13, Quan 10, Thanh Pho Ho Chi Minh"
DR302501,"830/1A Su Van Hanh, Phuong 13, Quan 10, Thanh Pho Ho Chi Minh"
DR302502,"343 To Hien Thanh, Phuong 12, Quan 10, Thanh Pho Ho Chi Minh"
EE210007,"12/241/10 ap 5, Dong Thanh, Hoc Mon, Thanh Pho Ho Chi Minh"
EE210027,"10 Dang Thuc Vinh, Dong Thanh, Hoc Mon, Thanh Pho Ho Chi Minh"
EE210047,"32/8B ap 4, Dong Thanh, Hoc Mon, Thanh Pho Ho Chi Minh"
OS180015,"192/26 Nguyen Oanh, Phuong 7, Go Vap, Thanh Pho Ho Chi Minh"
OS180019,"127B Dinh Tien Hoang, Phuong 3, Binh Thanh, Thanh Pho Ho Chi Minh"
OS200011,"1-3 Cao Ba Nha, Phuong Nguyen Cu Trinh, Quan 1, Thanh Pho Ho Chi Minh"
