payment_id,card_id,expired_date
R01T0Y20316,BTC010X23,2021-06-05
R01T0Y20600,BTC010X39,2021-06-13
R01T0Y20605,BTC010X42,2021-06-02
R01T0Y20612,BTC010X43,2021-06-03
R01T0Y21117,BTC010X09,2021-06-02
R01T0Y21200,BTC010X11,2021-06-16
R01T0Y21414,BTC010X32,2021-06-08
R01T0Y21516,BTC010X43,2021-06-03
R01T0Y21612,BTC010X50,2021-06-05
R01T0Y22203,BTC010X07,2021-06-19
R01T0Y22205,BTC010X08,2021-06-01
R01T0Y22317,BTC010X16,2021-06-13
R01T0Y22502,BTC010X24,2021-06-10
R01T0Y22603,BTC010X33,2021-06-01
R01T0Y22607,BTC010X34,2021-06-10
R01T0Y23111,BTC010X05,2021-06-03
R01T0Y23115,BTC010X09,2021-06-02
R01T0Y23215,BTC010X17,2021-06-13
R01T0Y23419,BTC010X30,2021-06-13
R01T0Y23506,BTC010X33,2021-06-01
R01T0Y23519,BTC010X38,2021-06-02
R01T0Y23614,BTC010X43,2021-06-03
R01T0Y24303,BTC010X10,2021-06-07
R01T0Y24305,BTC010X11,2021-06-16
R01T0Y24309,BTC010X13,2021-06-07
R01T0Y24418,BTC010X21,2021-06-15
R01T0Y24508,BTC010X25,2021-06-15
R01T0Y25103,BTC010X01,2021-06-05
R01T0Y25417,BTC010X20,2021-06-04
R01T0Y25502,BTC010X22,2021-06-11
R01T0Y25602,BTC010X31,2021-06-10
R01T0Y25615,BTC010X35,2021-06-17
R01T0Y26218,BTC010X10,2021-06-07
R01T0Y26613,BTC010X28,2021-06-05
R01T0Y26614,BTC010X29,2021-06-11
R01T1Y20105,BTC010X03,2021-06-15
R01T1Y20111,BTC010X04,2021-06-01
R01T1Y20216,BTC010X16,2021-06-13
R01T1Y20315,BTC010X22,2021-06-11
R01T1Y20602,BTC010X41,2021-06-01
R01T1Y20615,BTC010X44,2021-06-04
R01T1Y21109,BTC010X05,2021-06-03
R01T1Y21210,BTC010X15,2021-06-08
R01T1Y21304,BTC010X19,2021-06-05
R01T1Y21313,BTC010X25,2021-06-15
R01T1Y21406,BTC010X28,2021-06-05
R01T1Y21412,BTC010X30,2021-06-13
R01T1Y21418,BTC010X33,2021-06-01
R01T1Y21502,BTC010X35,2021-06-17
R01T1Y21506,BTC010X38,2021-06-02
R01T1Y22305,BTC010X11,2021-06-16
R01T1Y22501,BTC010X23,2021-06-05
R01T1Y23101,BTC010X02,2021-06-17
R01T1Y23114,BTC010X08,2021-06-01
R01T1Y23205,BTC010X12,2021-06-17
R01T1Y23314,BTC010X23,2021-06-05
R01T1Y23409,BTC010X28,2021-06-05
R01T1Y24114,BTC010X05,2021-06-03
R01T1Y24410,BTC010X19,2021-06-05
R01T1Y24502,BTC010X24,2021-06-10
R01T1Y25313,BTC010X14,2021-06-09
R01T1Y25401,BTC010X16,2021-06-13
R01T1Y25503,BTC010X23,2021-06-05
R01T1Y25505,BTC010X24,2021-06-10
R01T1Y25609,BTC010X34,2021-06-10
R01T1Y26207,BTC010X07,2021-06-19
R01T1Y26415,BTC010X19,2021-06-05
R01T1Y26501,BTC010X22,2021-06-11
R01T2Y20116,BTC010X07,2021-06-19
R01T2Y20211,BTC010X14,2021-06-09
R01T2Y20307,BTC010X19,2021-06-05
R01T2Y20308,BTC010X20,2021-06-04
R01T2Y20314,BTC010X21,2021-06-15
R01T2Y20415,BTC010X31,2021-06-10
R01T2Y21105,BTC010X03,2021-06-15
R01T2Y21208,BTC010X13,2021-06-07
R01T2Y21305,BTC010X20,2021-06-04
R01T2Y21409,BTC010X29,2021-06-11
R01T2Y21518,BTC010X44,2021-06-04
R01T2Y22106,BTC010X01,2021-06-05
R01T2Y22310,BTC010X12,2021-06-17
R01T2Y22503,BTC010X25,2021-06-15
R01T2Y22508,BTC010X28,2021-06-05
R01T2Y23301,BTC010X19,2021-06-05
R01T2Y23602,BTC010X40,2021-06-15
R01T2Y23603,BTC010X41,2021-06-01
R01T2Y23615,BTC010X44,2021-06-04
R01T2Y24419,BTC010X22,2021-06-11
R01T2Y24501,BTC010X23,2021-06-05
R01T2Y24603,BTC010X29,2021-06-11
R01T2Y24607,BTC010X31,2021-06-10
R01T2Y25113,BTC010X02,2021-06-17
R01T2Y25119,BTC010X03,2021-06-15
R01T2Y25206,BTC010X05,2021-06-03
R01T2Y25418,BTC010X21,2021-06-15
R01T2Y25514,BTC010X29,2021-06-11
R01T2Y25604,BTC010X32,2021-06-08
R01T2Y25618,BTC010X37,2021-06-11
R01T2Y26102,BTC010X02,2021-06-17
R01T2Y26400,BTC010X14,2021-06-09
R01T2Y26413,BTC010X18,2021-06-07
R01T2Y26504,BTC010X23,2021-06-05
R01T3Y20100,BTC010X01,2021-06-05
R01T3Y20118,BTC010X08,2021-06-01
R01T3Y20200,BTC010X09,2021-06-02
R01T3Y20306,BTC010X18,2021-06-07
R01T3Y20502,BTC010X33,2021-06-01
R01T3Y20601,BTC010X40,2021-06-15
R01T3Y21100,BTC010X01,2021-06-05
R01T3Y21113,BTC010X07,2021-06-19
R01T3Y21212,BTC010X16,2021-06-13
R01T3Y21310,BTC010X24,2021-06-10
R01T3Y21402,BTC010X27,2021-06-12
R01T3Y21504,BTC010X36,2021-06-05
R01T3Y21505,BTC010X37,2021-06-11
R01T3Y21601,BTC010X45,2021-06-05
R01T3Y22117,BTC010X04,2021-06-01
R01T3Y22118,BTC010X05,2021-06-03
R01T3Y22314,BTC010X14,2021-06-09
R01T3Y22316,BTC010X15,2021-06-08
R01T3Y23110,BTC010X04,2021-06-01
R01T3Y23217,BTC010X18,2021-06-07
R01T3Y23312,BTC010X22,2021-06-11
R01T3Y23505,BTC010X32,2021-06-08
R01T3Y23513,BTC010X36,2021-06-05
R01T3Y23515,BTC010X37,2021-06-11
R01T3Y24112,BTC010X03,2021-06-15
R01T3Y24217,BTC010X08,2021-06-01
R01T3Y24611,BTC010X32,2021-06-08
R01T3Y25513,BTC010X28,2021-06-05
R01T3Y26111,BTC010X03,2021-06-15
R01T3Y26209,BTC010X08,2021-06-01
R01T3Y26619,BTC010X30,2021-06-13
R01T4Y20102,BTC010X02,2021-06-17
R01T4Y20204,BTC010X11,2021-06-16
R01T4Y20205,BTC010X12,2021-06-17
R01T4Y20304,BTC010X17,2021-06-13
R01T4Y20401,BTC010X25,2021-06-15
R01T4Y20404,BTC010X27,2021-06-12
R01T4Y20414,BTC010X30,2021-06-13
R01T4Y20506,BTC010X35,2021-06-17
R01T4Y21115,BTC010X08,2021-06-01
R01T4Y21314,BTC010X26,2021-06-01
R01T4Y21501,BTC010X34,2021-06-10
R01T4Y21515,BTC010X42,2021-06-02
R01T4Y22412,BTC010X19,2021-06-05
R01T4Y22413,BTC010X20,2021-06-04
R01T4Y22600,BTC010X31,2021-06-10
R01T4Y23213,BTC010X15,2021-06-08
R01T4Y23315,BTC010X24,2021-06-10
R01T4Y23402,BTC010X26,2021-06-01
R01T4Y23415,BTC010X29,2021-06-11
R01T4Y23507,BTC010X34,2021-06-10
R01T4Y23512,BTC010X35,2021-06-17
R01T4Y24310,BTC010X14,2021-06-09
R01T4Y24601,BTC010X27,2021-06-12
R01T4Y25217,BTC010X09,2021-06-02
R01T4Y25306,BTC010X11,2021-06-16
R01T4Y25311,BTC010X13,2021-06-07
R01T4Y25510,BTC010X26,2021-06-01
R01T4Y25601,BTC010X30,2021-06-13
R01T4Y25605,BTC010X33,2021-06-01
R01T4Y26115,BTC010X05,2021-06-03
R01T4Y26311,BTC010X13,2021-06-07
R01T4Y26517,BTC010X24,2021-06-10
R01T4Y26607,BTC010X26,2021-06-01
R01T5Y20201,BTC010X10,2021-06-07
R01T5Y20208,BTC010X13,2021-06-07
R01T5Y20215,BTC010X15,2021-06-08
R01T5Y20318,BTC010X24,2021-06-10
R01T5Y20412,BTC010X29,2021-06-11
R01T5Y20515,BTC010X37,2021-06-11
R01T5Y20517,BTC010X38,2021-06-02
R01T5Y21204,BTC010X12,2021-06-17
R01T5Y21209,BTC010X14,2021-06-09
R01T5Y21213,BTC010X17,2021-06-13
R01T5Y21509,BTC010X39,2021-06-13
R01T5Y21605,BTC010X47,2021-06-01
R01T5Y22108,BTC010X02,2021-06-17
R01T5Y22119,BTC010X06,2021-06-12
R01T5Y22417,BTC010X22,2021-06-11
R01T5Y22515,BTC010X30,2021-06-13
R01T5Y22602,BTC010X32,2021-06-08
R01T5Y23206,BTC010X13,2021-06-07
R01T5Y23501,BTC010X31,2021-06-10
R01T5Y23601,BTC010X39,2021-06-13
R01T5Y23606,BTC010X42,2021-06-02
R01T5Y24302,BTC010X09,2021-06-02
R01T5Y24319,BTC010X16,2021-06-13
R01T5Y24606,BTC010X30,2021-06-13
R01T5Y25302,BTC010X10,2021-06-07
R01T5Y25407,BTC010X18,2021-06-07
R01T5Y26101,BTC010X01,2021-06-05
R01T5Y26112,BTC010X04,2021-06-01
R01T5Y26402,BTC010X16,2021-06-13
R01T5Y26416,BTC010X20,2021-06-04
R01T5Y26611,BTC010X27,2021-06-12
R01T6Y20115,BTC010X06,2021-06-12
R01T6Y20405,BTC010X28,2021-06-05
R01T6Y20416,BTC010X32,2021-06-08
R01T6Y20504,BTC010X34,2021-06-10
R01T6Y20616,BTC010X45,2021-06-05
R01T6Y21112,BTC010X06,2021-06-12
R01T6Y21118,BTC010X10,2021-06-07
R01T6Y21306,BTC010X21,2021-06-15
R01T6Y21413,BTC010X31,2021-06-10
R01T6Y21513,BTC010X40,2021-06-15
R01T6Y21514,BTC010X41,2021-06-01
R01T6Y21603,BTC010X46,2021-06-05
R01T6Y21606,BTC010X48,2021-06-03
R01T6Y21607,BTC010X49,2021-06-01
R01T6Y22112,BTC010X03,2021-06-15
R01T6Y22302,BTC010X10,2021-06-07
R01T6Y22311,BTC010X13,2021-06-07
R01T6Y22403,BTC010X17,2021-06-13
R01T6Y22409,BTC010X18,2021-06-07
R01T6Y22416,BTC010X21,2021-06-15
R01T6Y23100,BTC010X01,2021-06-05
R01T6Y23112,BTC010X06,2021-06-12
R01T6Y23113,BTC010X07,2021-06-19
R01T6Y23214,BTC010X16,2021-06-13
R01T6Y23302,BTC010X20,2021-06-04
R01T6Y23308,BTC010X21,2021-06-15
R01T6Y23317,BTC010X25,2021-06-15
R01T6Y23406,BTC010X27,2021-06-12
R01T6Y23616,BTC010X45,2021-06-05
R01T6Y24106,BTC010X01,2021-06-05
R01T6Y24207,BTC010X06,2021-06-12
R01T6Y24308,BTC010X12,2021-06-17
R01T6Y24317,BTC010X15,2021-06-08
R01T6Y24412,BTC010X20,2021-06-04
R01T6Y24514,BTC010X26,2021-06-01
R01T6Y25207,BTC010X06,2021-06-12
R01T6Y25208,BTC010X07,2021-06-19
R01T6Y25209,BTC010X08,2021-06-01
R01T6Y25400,BTC010X15,2021-06-08
R01T6Y25405,BTC010X17,2021-06-13
R01T6Y25507,BTC010X25,2021-06-15
R01T6Y25511,BTC010X27,2021-06-12
R01T6Y26116,BTC010X06,2021-06-12
R01T6Y26300,BTC010X11,2021-06-16
R01T6Y26401,BTC010X15,2021-06-08
R01T6Y26417,BTC010X21,2021-06-15
R01T7Y20114,BTC010X05,2021-06-03
R01T7Y20402,BTC010X26,2021-06-01
R01T7Y20511,BTC010X36,2021-06-05
R01T7Y21102,BTC010X02,2021-06-17
R01T7Y21106,BTC010X04,2021-06-01
R01T7Y21217,BTC010X18,2021-06-07
R01T7Y21308,BTC010X22,2021-06-11
R01T7Y21309,BTC010X23,2021-06-05
R01T7Y22208,BTC010X09,2021-06-02
R01T7Y22505,BTC010X26,2021-06-01
R01T7Y22506,BTC010X27,2021-06-12
R01T7Y22514,BTC010X29,2021-06-11
R01T7Y22614,BTC010X35,2021-06-17
R01T7Y22616,BTC010X36,2021-06-05
R01T7Y23107,BTC010X03,2021-06-15
R01T7Y23201,BTC010X10,2021-06-07
R01T7Y23204,BTC010X11,2021-06-16
R01T7Y23210,BTC010X14,2021-06-09
R01T7Y24111,BTC010X02,2021-06-17
R01T7Y24113,BTC010X04,2021-06-01
R01T7Y24210,BTC010X07,2021-06-19
R01T7Y24401,BTC010X17,2021-06-13
R01T7Y24408,BTC010X18,2021-06-07
R01T7Y24602,BTC010X28,2021-06-05
R01T7Y25201,BTC010X04,2021-06-01
R01T7Y25310,BTC010X12,2021-06-17
R01T7Y25411,BTC010X19,2021-06-05
R01T7Y25617,BTC010X36,2021-06-05
R01T7Y26215,BTC010X09,2021-06-02
R01T7Y26304,BTC010X12,2021-06-17
R01T7Y26410,BTC010X17,2021-06-13
R01T7Y26606,BTC010X25,2021-06-15
R02T0Y20112,BTC020X06,2021-06-01
R02T0Y20113,BTC020X07,2021-06-17
R02T0Y20504,BTC020X28,2021-06-02
R02T0Y20509,BTC020X30,2021-06-19
R02T0Y20601,BTC020X33,2021-06-01
R02T0Y20602,BTC020X34,2021-06-15
R02T0Y20607,BTC020X37,2021-06-03
R02T0Y21113,BTC020X09,2021-06-19
R02T0Y21605,BTC020X39,2021-06-12
R02T0Y22318,BTC020X17,2021-06-17
R02T0Y22604,BTC020X33,2021-06-01
R02T0Y23106,BTC020X04,2021-06-12
R02T0Y23118,BTC020X10,2021-06-04
R02T0Y23302,BTC020X20,2021-06-09
R02T0Y23318,BTC020X25,2021-06-15
R02T0Y23612,BTC020X37,2021-06-03
R02T0Y23616,BTC020X39,2021-06-12
R02T0Y24206,BTC020X07,2021-06-17
R02T0Y24210,BTC020X08,2021-06-19
R02T0Y24405,BTC020X19,2021-06-06
R02T0Y24518,BTC020X28,2021-06-02
R02T0Y24600,BTC020X29,2021-06-03
R02T0Y24609,BTC020X34,2021-06-15
R02T0Y25104,BTC020X04,2021-06-12
R02T0Y25113,BTC020X07,2021-06-17
R02T0Y25300,BTC020X16,2021-06-05
R02T0Y26306,BTC020X18,2021-06-14
R02T0Y26617,BTC020X40,2021-06-01
R02T1Y20103,BTC020X02,2021-06-12
R02T1Y20107,BTC020X05,2021-06-06
R02T1Y20207,BTC020X11,2021-06-05
R02T1Y20307,BTC020X19,2021-06-06
R02T1Y20309,BTC020X21,2021-06-04
R02T1Y20315,BTC020X22,2021-06-07
R02T1Y21201,BTC020X14,2021-06-11
R02T1Y21313,BTC020X22,2021-06-07
R02T1Y21401,BTC020X24,2021-06-13
R02T1Y21507,BTC020X30,2021-06-19
R02T1Y22205,BTC020X10,2021-06-04
R02T1Y22218,BTC020X13,2021-06-18
R02T1Y22412,BTC020X23,2021-06-14
R02T1Y22419,BTC020X25,2021-06-15
R02T1Y23108,BTC020X05,2021-06-06
R02T1Y23202,BTC020X11,2021-06-05
R02T1Y23301,BTC020X19,2021-06-06
R02T1Y23409,BTC020X26,2021-06-05
R02T1Y23614,BTC020X38,2021-06-09
R02T1Y23619,BTC020X41,2021-06-16
R02T1Y24215,BTC020X10,2021-06-04
R02T1Y24307,BTC020X14,2021-06-11
R02T1Y24310,BTC020X15,2021-06-06
R02T1Y25116,BTC020X08,2021-06-19
R02T1Y25212,BTC020X14,2021-06-11
R02T1Y25217,BTC020X15,2021-06-06
R02T1Y25309,BTC020X20,2021-06-09
R02T1Y25315,BTC020X22,2021-06-07
R02T1Y25510,BTC020X30,2021-06-19
R02T1Y25519,BTC020X33,2021-06-01
R02T1Y25613,BTC020X39,2021-06-12
R02T1Y26115,BTC020X07,2021-06-17
R02T1Y26204,BTC020X11,2021-06-05
R02T1Y26212,BTC020X15,2021-06-06
R02T1Y26217,BTC020X16,2021-06-05
R02T1Y26318,BTC020X20,2021-06-09
R02T1Y26501,BTC020X31,2021-06-13
R02T2Y20102,BTC020X01,2021-06-03
R02T2Y20203,BTC020X09,2021-06-19
R02T2Y20412,BTC020X24,2021-06-13
R02T2Y20512,BTC020X31,2021-06-13
R02T2Y20603,BTC020X35,2021-06-14
R02T2Y21302,BTC020X19,2021-06-06
R02T2Y21309,BTC020X21,2021-06-04
R02T2Y21514,BTC020X34,2021-06-15
R02T2Y21608,BTC020X40,2021-06-01
R02T2Y21611,BTC020X42,2021-06-16
R02T2Y21612,BTC020X43,2021-06-09
R02T2Y22107,BTC020X03,2021-06-04
R02T2Y22116,BTC020X07,2021-06-17
R02T2Y22500,BTC020X26,2021-06-05
R02T2Y22506,BTC020X28,2021-06-02
R02T2Y22602,BTC020X31,2021-06-13
R02T2Y23103,BTC020X01,2021-06-03
R02T2Y23117,BTC020X09,2021-06-19
R02T2Y23215,BTC020X16,2021-06-05
R02T2Y23304,BTC020X22,2021-06-07
R02T2Y23418,BTC020X28,2021-06-02
R02T2Y23503,BTC020X30,2021-06-19
R02T2Y23602,BTC020X34,2021-06-15
R02T2Y23608,BTC020X36,2021-06-14
R02T2Y24218,BTC020X11,2021-06-05
R02T2Y24306,BTC020X13,2021-06-18
R02T2Y24504,BTC020X24,2021-06-13
R02T2Y24508,BTC020X26,2021-06-05
R02T2Y24601,BTC020X30,2021-06-19
R02T2Y24606,BTC020X32,2021-06-19
R02T2Y25101,BTC020X02,2021-06-12
R02T2Y25307,BTC020X19,2021-06-06
R02T2Y25509,BTC020X29,2021-06-03
R02T2Y25605,BTC020X36,2021-06-14
R02T2Y25611,BTC020X38,2021-06-09
R02T2Y26113,BTC020X05,2021-06-06
R02T2Y26114,BTC020X06,2021-06-01
R02T2Y26203,BTC020X10,2021-06-04
R02T2Y26319,BTC020X21,2021-06-04
R02T2Y26400,BTC020X22,2021-06-07
R02T2Y26500,BTC020X30,2021-06-19
R02T3Y20215,BTC020X14,2021-06-11
R02T3Y20217,BTC020X16,2021-06-05
R02T3Y21114,BTC020X10,2021-06-04
R02T3Y21208,BTC020X16,2021-06-05
R02T3Y21314,BTC020X23,2021-06-14
R02T3Y21601,BTC020X38,2021-06-09
R02T3Y22109,BTC020X05,2021-06-06
R02T3Y22310,BTC020X15,2021-06-06
R02T3Y22312,BTC020X16,2021-06-05
R02T3Y22407,BTC020X21,2021-06-04
R02T3Y23104,BTC020X02,2021-06-12
R02T3Y23105,BTC020X03,2021-06-04
R02T3Y23204,BTC020X13,2021-06-18
R02T3Y23605,BTC020X35,2021-06-14
R02T3Y24404,BTC020X18,2021-06-14
R02T3Y24408,BTC020X20,2021-06-09
R02T3Y24505,BTC020X25,2021-06-15
R02T3Y25100,BTC020X01,2021-06-03
R02T3Y25117,BTC020X09,2021-06-19
R02T3Y25406,BTC020X23,2021-06-14
R02T3Y26105,BTC020X02,2021-06-12
R02T3Y26119,BTC020X08,2021-06-19
R02T3Y26314,BTC020X19,2021-06-06
R02T3Y26402,BTC020X23,2021-06-14
R02T3Y26407,BTC020X25,2021-06-15
R02T3Y26416,BTC020X29,2021-06-03
R02T3Y26604,BTC020X37,2021-06-03
R02T3Y26618,BTC020X41,2021-06-16
R02T4Y20216,BTC020X15,2021-06-06
R02T4Y20308,BTC020X20,2021-06-09
R02T4Y20417,BTC020X26,2021-06-05
R02T4Y20502,BTC020X27,2021-06-19
R02T4Y21102,BTC020X02,2021-06-12
R02T4Y21103,BTC020X03,2021-06-04
R02T4Y21207,BTC020X15,2021-06-06
R02T4Y21410,BTC020X27,2021-06-19
R02T4Y22405,BTC020X19,2021-06-06
R02T4Y22406,BTC020X20,2021-06-09
R02T4Y22612,BTC020X34,2021-06-15
R02T4Y23116,BTC020X08,2021-06-19
R02T4Y23210,BTC020X14,2021-06-11
R02T4Y23211,BTC020X15,2021-06-06
R02T4Y23303,BTC020X21,2021-06-04
R02T4Y24304,BTC020X12,2021-06-16
R02T4Y24400,BTC020X17,2021-06-17
R02T4Y24512,BTC020X27,2021-06-19
R02T4Y24608,BTC020X33,2021-06-01
R02T4Y25102,BTC020X03,2021-06-04
R02T4Y25305,BTC020X18,2021-06-14
R02T4Y25603,BTC020X34,2021-06-15
R02T4Y26104,BTC020X01,2021-06-03
R02T4Y26209,BTC020X12,2021-06-16
R02T4Y26211,BTC020X14,2021-06-11
R02T4Y26219,BTC020X17,2021-06-17
R02T4Y26412,BTC020X28,2021-06-02
R02T4Y26605,BTC020X38,2021-06-09
R02T5Y20301,BTC020X17,2021-06-17
R02T5Y20415,BTC020X25,2021-06-15
R02T5Y20508,BTC020X29,2021-06-03
R02T5Y21108,BTC020X06,2021-06-01
R02T5Y21116,BTC020X11,2021-06-05
R02T5Y21212,BTC020X17,2021-06-17
R02T5Y21308,BTC020X20,2021-06-09
R02T5Y21600,BTC020X37,2021-06-03
R02T5Y22106,BTC020X02,2021-06-12
R02T5Y22403,BTC020X18,2021-06-14
R02T5Y22516,BTC020X29,2021-06-03
R02T5Y22603,BTC020X32,2021-06-19
R02T5Y22613,BTC020X35,2021-06-14
R02T5Y23113,BTC020X06,2021-06-01
R02T5Y23310,BTC020X23,2021-06-14
R02T5Y23508,BTC020X31,2021-06-13
R02T5Y24108,BTC020X03,2021-06-04
R02T5Y24202,BTC020X06,2021-06-01
R02T5Y24611,BTC020X35,2021-06-14
R02T5Y24616,BTC020X36,2021-06-14
R02T5Y25118,BTC020X10,2021-06-04
R02T5Y25313,BTC020X21,2021-06-04
R02T5Y25412,BTC020X24,2021-06-13
R02T5Y25500,BTC020X28,2021-06-02
R02T5Y25514,BTC020X31,2021-06-13
R02T5Y26106,BTC020X03,2021-06-04
R02T5Y26109,BTC020X04,2021-06-12
R02T5Y26210,BTC020X13,2021-06-18
R02T5Y26410,BTC020X26,2021-06-05
R02T5Y26516,BTC020X35,2021-06-14
R02T6Y20105,BTC020X04,2021-06-12
R02T6Y20208,BTC020X12,2021-06-16
R02T6Y20304,BTC020X18,2021-06-14
R02T6Y20519,BTC020X32,2021-06-19
R02T6Y20615,BTC020X39,2021-06-12
R02T6Y20619,BTC020X40,2021-06-01
R02T6Y21104,BTC020X04,2021-06-12
R02T6Y21105,BTC020X05,2021-06-06
R02T6Y21110,BTC020X07,2021-06-17
R02T6Y21119,BTC020X13,2021-06-18
R02T6Y21409,BTC020X26,2021-06-05
R02T6Y21511,BTC020X32,2021-06-19
R02T6Y21515,BTC020X35,2021-06-14
R02T6Y21609,BTC020X41,2021-06-16
R02T6Y21613,BTC020X44,2021-06-16
R02T6Y22118,BTC020X08,2021-06-19
R02T6Y22208,BTC020X12,2021-06-16
R02T6Y22309,BTC020X14,2021-06-11
R02T6Y22410,BTC020X22,2021-06-07
R02T6Y22413,BTC020X24,2021-06-13
R02T6Y22619,BTC020X37,2021-06-03
R02T6Y23219,BTC020X18,2021-06-14
R02T6Y23313,BTC020X24,2021-06-13
R02T6Y23417,BTC020X27,2021-06-19
R02T6Y23509,BTC020X32,2021-06-19
R02T6Y23510,BTC020X33,2021-06-01
R02T6Y24105,BTC020X01,2021-06-03
R02T6Y24107,BTC020X02,2021-06-12
R02T6Y24114,BTC020X04,2021-06-12
R02T6Y24117,BTC020X05,2021-06-06
R02T6Y24317,BTC020X16,2021-06-05
R02T6Y24416,BTC020X22,2021-06-07
R02T6Y24418,BTC020X23,2021-06-14
R02T6Y24604,BTC020X31,2021-06-13
R02T6Y25414,BTC020X26,2021-06-05
R02T6Y25604,BTC020X35,2021-06-14
R02T6Y25619,BTC020X40,2021-06-01
R02T6Y26201,BTC020X09,2021-06-19
R02T6Y26406,BTC020X24,2021-06-13
R02T6Y26505,BTC020X32,2021-06-19
R02T6Y26512,BTC020X34,2021-06-15
R02T6Y26613,BTC020X39,2021-06-12
R02T7Y20104,BTC020X03,2021-06-04
R02T7Y20114,BTC020X08,2021-06-19
R02T7Y20204,BTC020X10,2021-06-04
R02T7Y20210,BTC020X13,2021-06-18
R02T7Y20401,BTC020X23,2021-06-14
R02T7Y20605,BTC020X36,2021-06-14
R02T7Y20609,BTC020X38,2021-06-09
R02T7Y21100,BTC020X01,2021-06-03
R02T7Y21111,BTC020X08,2021-06-19
R02T7Y21118,BTC020X12,2021-06-16
R02T7Y21217,BTC020X18,2021-06-14
R02T7Y21404,BTC020X25,2021-06-15
R02T7Y21503,BTC020X28,2021-06-02
R02T7Y21505,BTC020X29,2021-06-03
R02T7Y21509,BTC020X31,2021-06-13
R02T7Y21512,BTC020X33,2021-06-01
R02T7Y21518,BTC020X36,2021-06-14
R02T7Y22105,BTC020X01,2021-06-03
R02T7Y22108,BTC020X04,2021-06-12
R02T7Y22114,BTC020X06,2021-06-01
R02T7Y22201,BTC020X09,2021-06-19
R02T7Y22206,BTC020X11,2021-06-05
R02T7Y22501,BTC020X27,2021-06-19
R02T7Y22517,BTC020X30,2021-06-19
R02T7Y22618,BTC020X36,2021-06-14
R02T7Y23114,BTC020X07,2021-06-17
R02T7Y23203,BTC020X12,2021-06-16
R02T7Y23217,BTC020X17,2021-06-17
R02T7Y23501,BTC020X29,2021-06-03
R02T7Y23617,BTC020X40,2021-06-01
R02T7Y24212,BTC020X09,2021-06-19
R02T7Y24412,BTC020X21,2021-06-04
R02T7Y25108,BTC020X05,2021-06-06
R02T7Y25110,BTC020X06,2021-06-01
R02T7Y25200,BTC020X11,2021-06-05
R02T7Y25202,BTC020X12,2021-06-16
R02T7Y25210,BTC020X13,2021-06-18
R02T7Y25304,BTC020X17,2021-06-17
R02T7Y25413,BTC020X25,2021-06-15
R02T7Y25417,BTC020X27,2021-06-19
R02T7Y25517,BTC020X32,2021-06-19
R02T7Y25607,BTC020X37,2021-06-03
R02T7Y26411,BTC020X27,2021-06-19
R02T7Y26508,BTC020X33,2021-06-01
R02T7Y26601,BTC020X36,2021-06-14
R03T0Y20106,BTC030X04,2021-06-07
R03T0Y20403,BTC030X18,2021-06-14
R03T0Y20418,BTC030X22,2021-06-04
R03T0Y20509,BTC030X26,2021-06-09
R03T0Y20618,BTC030X38,2021-06-02
R03T0Y21215,BTC030X08,2021-06-19
R03T0Y21407,BTC030X19,2021-06-10
R03T0Y21514,BTC030X27,2021-06-01
R03T0Y22114,BTC030X06,2021-06-02
R03T0Y22304,BTC030X13,2021-06-04
R03T0Y22313,BTC030X16,2021-06-02
R03T0Y22401,BTC030X21,2021-06-03
R03T0Y23112,BTC030X03,2021-06-04
R03T0Y23116,BTC030X05,2021-06-19
R03T0Y23218,BTC030X08,2021-06-19
R03T0Y23300,BTC030X09,2021-06-05
R03T0Y23312,BTC030X16,2021-06-02
R03T0Y23418,BTC030X23,2021-06-15
R03T0Y23602,BTC030X34,2021-06-19
R03T0Y23611,BTC030X40,2021-06-12
R03T0Y24504,BTC030X26,2021-06-09
R03T0Y24601,BTC030X33,2021-06-03
R03T0Y24602,BTC030X34,2021-06-19
R03T0Y25109,BTC030X04,2021-06-07
R03T0Y25116,BTC030X07,2021-06-11
R03T0Y25203,BTC030X11,2021-06-11
R03T0Y25214,BTC030X16,2021-06-02
R03T0Y25219,BTC030X20,2021-06-14
R03T0Y25514,BTC030X38,2021-06-02
R03T0Y25519,BTC030X41,2021-06-13
R03T0Y25600,BTC030X42,2021-06-06
R03T0Y26216,BTC030X08,2021-06-19
R03T0Y26416,BTC030X21,2021-06-03
R03T0Y26418,BTC030X22,2021-06-04
R03T0Y26500,BTC030X24,2021-06-04
R03T0Y26510,BTC030X26,2021-06-09
R03T0Y26612,BTC030X30,2021-06-18
R03T1Y20108,BTC030X05,2021-06-19
R03T1Y20317,BTC030X16,2021-06-02
R03T1Y20506,BTC030X25,2021-06-09
R03T1Y20608,BTC030X32,2021-06-17
R03T1Y20610,BTC030X33,2021-06-03
R03T1Y21213,BTC030X07,2021-06-11
R03T1Y21411,BTC030X21,2021-06-03
R03T1Y22109,BTC030X03,2021-06-04
R03T1Y22212,BTC030X11,2021-06-11
R03T1Y22218,BTC030X12,2021-06-07
R03T1Y22514,BTC030X31,2021-06-01
R03T1Y22517,BTC030X32,2021-06-17
R03T1Y22607,BTC030X35,2021-06-06
R03T1Y23517,BTC030X32,2021-06-17
R03T1Y23608,BTC030X38,2021-06-02
R03T1Y23612,BTC030X41,2021-06-13
R03T1Y24113,BTC030X06,2021-06-02
R03T1Y24206,BTC030X09,2021-06-05
R03T1Y24303,BTC030X16,2021-06-02
R03T1Y24307,BTC030X17,2021-06-06
R03T1Y24312,BTC030X19,2021-06-10
R03T1Y24405,BTC030X22,2021-06-04
R03T1Y24505,BTC030X27,2021-06-01
R03T1Y25117,BTC030X08,2021-06-19
R03T1Y25217,BTC030X19,2021-06-10
R03T1Y25307,BTC030X22,2021-06-04
R03T1Y25417,BTC030X30,2021-06-18
R03T1Y25601,BTC030X43,2021-06-05
R03T1Y25613,BTC030X47,2021-06-09
R03T1Y26112,BTC030X03,2021-06-04
R03T1Y26206,BTC030X05,2021-06-19
R03T1Y26414,BTC030X19,2021-06-10
R03T1Y26415,BTC030X20,2021-06-14
R03T1Y26419,BTC030X23,2021-06-15
R03T2Y20315,BTC030X15,2021-06-19
R03T2Y20617,BTC030X37,2021-06-06
R03T2Y21313,BTC030X14,2021-06-07
R03T2Y21519,BTC030X29,2021-06-03
R03T2Y21614,BTC030X35,2021-06-06
R03T2Y22307,BTC030X15,2021-06-19
R03T2Y22315,BTC030X18,2021-06-14
R03T2Y22404,BTC030X23,2021-06-15
R03T2Y22408,BTC030X25,2021-06-09
R03T2Y22416,BTC030X27,2021-06-01
R03T2Y22505,BTC030X29,2021-06-03
R03T2Y22605,BTC030X34,2021-06-19
R03T2Y23304,BTC030X12,2021-06-07
R03T2Y23412,BTC030X21,2021-06-03
R03T2Y23509,BTC030X29,2021-06-03
R03T2Y23610,BTC030X39,2021-06-15
R03T2Y24207,BTC030X10,2021-06-13
R03T2Y24216,BTC030X14,2021-06-07
R03T2Y24506,BTC030X28,2021-06-11
R03T2Y24513,BTC030X30,2021-06-18
R03T2Y25200,BTC030X09,2021-06-05
R03T2Y25201,BTC030X10,2021-06-13
R03T2Y25212,BTC030X15,2021-06-19
R03T2Y25215,BTC030X17,2021-06-06
R03T2Y25300,BTC030X21,2021-06-03
R03T2Y25513,BTC030X37,2021-06-06
R03T2Y26313,BTC030X12,2021-06-07
R03T2Y26517,BTC030X28,2021-06-11
R03T2Y26613,BTC030X31,2021-06-01
R03T3Y20105,BTC030X03,2021-06-04
R03T3Y20202,BTC030X06,2021-06-02
R03T3Y20216,BTC030X10,2021-06-13
R03T3Y20411,BTC030X20,2021-06-14
R03T3Y21410,BTC030X20,2021-06-14
R03T3Y21611,BTC030X34,2021-06-19
R03T3Y21616,BTC030X36,2021-06-02
R03T3Y22112,BTC030X04,2021-06-07
R03T3Y22306,BTC030X14,2021-06-07
R03T3Y22405,BTC030X24,2021-06-04
R03T3Y22602,BTC030X33,2021-06-03
R03T3Y23201,BTC030X07,2021-06-11
R03T3Y23400,BTC030X18,2021-06-14
R03T3Y23419,BTC030X24,2021-06-04
R03T3Y23511,BTC030X30,2021-06-18
R03T3Y24101,BTC030X02,2021-06-12
R03T3Y24212,BTC030X13,2021-06-04
R03T3Y24302,BTC030X15,2021-06-19
R03T3Y24308,BTC030X18,2021-06-14
R03T3Y24408,BTC030X23,2021-06-15
R03T3Y24519,BTC030X31,2021-06-01
R03T3Y25101,BTC030X01,2021-06-01
R03T3Y25103,BTC030X02,2021-06-12
R03T3Y25114,BTC030X06,2021-06-02
R03T3Y25206,BTC030X13,2021-06-04
R03T3Y25216,BTC030X18,2021-06-14
R03T3Y25505,BTC030X33,2021-06-03
R03T3Y25507,BTC030X35,2021-06-06
R03T3Y25604,BTC030X45,2021-06-04
R03T3Y26309,BTC030X10,2021-06-13
R03T4Y20210,BTC030X08,2021-06-19
R03T4Y20409,BTC030X19,2021-06-10
R03T4Y20516,BTC030X29,2021-06-03
R03T4Y20517,BTC030X30,2021-06-18
R03T4Y20605,BTC030X31,2021-06-01
R03T4Y21114,BTC030X03,2021-06-04
R03T4Y21116,BTC030X04,2021-06-07
R03T4Y21306,BTC030X11,2021-06-11
R03T4Y21307,BTC030X12,2021-06-07
R03T4Y21317,BTC030X16,2021-06-02
R03T4Y21418,BTC030X23,2021-06-15
R03T4Y21503,BTC030X25,2021-06-09
R03T4Y21606,BTC030X31,2021-06-01
R03T4Y23410,BTC030X19,2021-06-10
R03T4Y23506,BTC030X27,2021-06-01
R03T4Y23607,BTC030X37,2021-06-06
R03T4Y24112,BTC030X05,2021-06-19
R03T4Y24114,BTC030X07,2021-06-11
R03T4Y24414,BTC030X25,2021-06-09
R03T4Y24617,BTC030X38,2021-06-02
R03T4Y25106,BTC030X03,2021-06-04
R03T4Y25111,BTC030X05,2021-06-19
R03T4Y25205,BTC030X12,2021-06-07
R03T4Y25405,BTC030X26,2021-06-09
R03T4Y25502,BTC030X32,2021-06-17
R03T4Y25506,BTC030X34,2021-06-19
R03T4Y25515,BTC030X39,2021-06-15
R03T4Y25518,BTC030X40,2021-06-12
R03T4Y26312,BTC030X11,2021-06-11
R03T5Y20208,BTC030X07,2021-06-11
R03T5Y20213,BTC030X09,2021-06-05
R03T5Y20302,BTC030X11,2021-06-11
R03T5Y20311,BTC030X13,2021-06-04
R03T5Y20505,BTC030X24,2021-06-04
R03T5Y20510,BTC030X27,2021-06-01
R03T5Y21105,BTC030X02,2021-06-12
R03T5Y21300,BTC030X10,2021-06-13
R03T5Y21607,BTC030X32,2021-06-17
R03T5Y22105,BTC030X01,2021-06-01
R03T5Y22207,BTC030X08,2021-06-19
R03T5Y22314,BTC030X17,2021-06-06
R03T5Y23105,BTC030X02,2021-06-12
R03T5Y23508,BTC030X28,2021-06-11
R03T5Y23603,BTC030X35,2021-06-06
R03T5Y24205,BTC030X08,2021-06-19
R03T5Y24208,BTC030X11,2021-06-11
R03T5Y24210,BTC030X12,2021-06-07
R03T5Y24404,BTC030X21,2021-06-03
R03T5Y24409,BTC030X24,2021-06-04
R03T5Y24507,BTC030X29,2021-06-03
R03T5Y25400,BTC030X25,2021-06-09
R03T5Y25414,BTC030X29,2021-06-03
R03T5Y25603,BTC030X44,2021-06-11
R03T5Y26105,BTC030X02,2021-06-12
R03T5Y26214,BTC030X07,2021-06-11
R03T5Y26410,BTC030X17,2021-06-06
R03T5Y26412,BTC030X18,2021-06-14
R03T5Y26616,BTC030X33,2021-06-03
R03T6Y20103,BTC030X01,2021-06-01
R03T6Y20104,BTC030X02,2021-06-12
R03T6Y20313,BTC030X14,2021-06-07
R03T6Y20319,BTC030X17,2021-06-06
R03T6Y20503,BTC030X23,2021-06-15
R03T6Y20514,BTC030X28,2021-06-11
R03T6Y20611,BTC030X34,2021-06-19
R03T6Y20613,BTC030X35,2021-06-06
R03T6Y21101,BTC030X01,2021-06-01
R03T6Y21205,BTC030X06,2021-06-02
R03T6Y21217,BTC030X09,2021-06-05
R03T6Y21308,BTC030X13,2021-06-04
R03T6Y21316,BTC030X15,2021-06-19
R03T6Y21414,BTC030X22,2021-06-04
R03T6Y21419,BTC030X24,2021-06-04
R03T6Y21506,BTC030X26,2021-06-09
R03T6Y21518,BTC030X28,2021-06-11
R03T6Y21608,BTC030X33,2021-06-03
R03T6Y22108,BTC030X02,2021-06-12
R03T6Y22113,BTC030X05,2021-06-19
R03T6Y22119,BTC030X07,2021-06-11
R03T6Y22211,BTC030X10,2021-06-13
R03T6Y22316,BTC030X19,2021-06-10
R03T6Y22400,BTC030X20,2021-06-14
R03T6Y22402,BTC030X22,2021-06-04
R03T6Y22415,BTC030X26,2021-06-09
R03T6Y22419,BTC030X28,2021-06-11
R03T6Y22511,BTC030X30,2021-06-18
R03T6Y22615,BTC030X36,2021-06-02
R03T6Y23306,BTC030X13,2021-06-04
R03T6Y23311,BTC030X15,2021-06-19
R03T6Y23317,BTC030X17,2021-06-06
R03T6Y23411,BTC030X20,2021-06-14
R03T6Y23512,BTC030X31,2021-06-01
R03T6Y23605,BTC030X36,2021-06-02
R03T6Y23617,BTC030X42,2021-06-06
R03T6Y24100,BTC030X01,2021-06-01
R03T6Y24108,BTC030X03,2021-06-04
R03T6Y24109,BTC030X04,2021-06-07
R03T6Y24611,BTC030X36,2021-06-02
R03T6Y24613,BTC030X37,2021-06-06
R03T6Y25309,BTC030X23,2021-06-15
R03T6Y25311,BTC030X24,2021-06-04
R03T6Y25406,BTC030X27,2021-06-01
R03T6Y25500,BTC030X31,2021-06-01
R03T6Y25610,BTC030X46,2021-06-06
R03T6Y26102,BTC030X01,2021-06-01
R03T6Y26304,BTC030X09,2021-06-05
R03T6Y26319,BTC030X13,2021-06-04
R03T6Y26404,BTC030X15,2021-06-19
R03T6Y26405,BTC030X16,2021-06-02
R03T6Y26503,BTC030X25,2021-06-09
R03T6Y26607,BTC030X29,2021-06-03
R03T7Y20310,BTC030X12,2021-06-07
R03T7Y20416,BTC030X21,2021-06-03
R03T7Y20616,BTC030X36,2021-06-02
R03T7Y21200,BTC030X05,2021-06-19
R03T7Y21318,BTC030X17,2021-06-06
R03T7Y21401,BTC030X18,2021-06-14
R03T7Y21603,BTC030X30,2021-06-18
R03T7Y22209,BTC030X09,2021-06-05
R03T7Y23100,BTC030X01,2021-06-01
R03T7Y23115,BTC030X04,2021-06-07
R03T7Y23118,BTC030X06,2021-06-02
R03T7Y23302,BTC030X10,2021-06-13
R03T7Y23303,BTC030X11,2021-06-11
R03T7Y23309,BTC030X14,2021-06-07
R03T7Y23413,BTC030X22,2021-06-04
R03T7Y23500,BTC030X25,2021-06-09
R03T7Y23505,BTC030X26,2021-06-09
R03T7Y23600,BTC030X33,2021-06-03
R03T7Y23619,BTC030X43,2021-06-05
R03T7Y24314,BTC030X20,2021-06-14
R03T7Y24600,BTC030X32,2021-06-17
R03T7Y24607,BTC030X35,2021-06-06
R03T7Y25207,BTC030X14,2021-06-07
R03T7Y25410,BTC030X28,2021-06-11
R03T7Y25508,BTC030X36,2021-06-02
R03T7Y26115,BTC030X04,2021-06-07
R03T7Y26211,BTC030X06,2021-06-02
R03T7Y26400,BTC030X14,2021-06-07
R03T7Y26512,BTC030X27,2021-06-01
R03T7Y26615,BTC030X32,2021-06-17
R04T0Y20212,BTC040X11,2021-06-04
R04T0Y20319,BTC040X22,2021-06-12
R04T0Y20403,BTC040X24,2021-06-13
R04T0Y20610,BTC040X36,2021-06-16
R04T0Y21113,BTC040X07,2021-06-06
R04T0Y21117,BTC040X10,2021-06-19
R04T0Y21205,BTC040X15,2021-06-15
R04T0Y21219,BTC040X22,2021-06-12
R04T0Y21311,BTC040X25,2021-06-19
R04T0Y21611,BTC040X46,2021-06-15
R04T0Y21612,BTC040X47,2021-06-09
R04T0Y21619,BTC040X51,2021-06-02
R04T0Y22106,BTC040X04,2021-06-07
R04T0Y22201,BTC040X09,2021-06-17
R04T0Y22205,BTC040X10,2021-06-19
R04T0Y22208,BTC040X12,2021-06-01
R04T0Y22314,BTC040X23,2021-06-01
R04T0Y22517,BTC040X40,2021-06-09
R04T0Y23203,BTC040X07,2021-06-06
R04T0Y23401,BTC040X18,2021-06-07
R04T0Y23413,BTC040X23,2021-06-01
R04T0Y23511,BTC040X31,2021-06-05
R04T0Y24116,BTC040X07,2021-06-06
R04T0Y24303,BTC040X13,2021-06-01
R04T0Y24400,BTC040X18,2021-06-07
R04T0Y24504,BTC040X27,2021-06-16
R04T0Y25106,BTC040X01,2021-06-03
R04T0Y25400,BTC040X21,2021-06-02
R04T0Y25413,BTC040X26,2021-06-08
R04T0Y25610,BTC040X36,2021-06-16
R04T0Y26102,BTC040X01,2021-06-03
R04T0Y26416,BTC040X23,2021-06-01
R04T0Y26418,BTC040X24,2021-06-13
R04T0Y26603,BTC040X28,2021-06-06
R04T0Y26613,BTC040X30,2021-06-04
R04T1Y20112,BTC040X04,2021-06-07
R04T1Y20415,BTC040X28,2021-06-06
R04T1Y20514,BTC040X31,2021-06-05
R04T1Y20614,BTC040X37,2021-06-02
R04T1Y21100,BTC040X01,2021-06-03
R04T1Y21217,BTC040X20,2021-06-19
R04T1Y21309,BTC040X24,2021-06-13
R04T1Y22110,BTC040X05,2021-06-13
R04T1Y22303,BTC040X18,2021-06-07
R04T1Y22306,BTC040X19,2021-06-06
R04T1Y22307,BTC040X20,2021-06-19
R04T1Y22415,BTC040X32,2021-06-13
R04T1Y22416,BTC040X33,2021-06-18
R04T1Y22506,BTC040X35,2021-06-19
R04T1Y23118,BTC040X05,2021-06-13
R04T1Y23301,BTC040X12,2021-06-01
R04T1Y23303,BTC040X13,2021-06-01
R04T1Y23403,BTC040X20,2021-06-19
R04T1Y23517,BTC040X35,2021-06-19
R04T1Y23611,BTC040X41,2021-06-16
R04T1Y24215,BTC040X11,2021-06-04
R04T1Y24405,BTC040X19,2021-06-06
R04T1Y24413,BTC040X21,2021-06-02
R04T1Y24417,BTC040X24,2021-06-13
R04T1Y24502,BTC040X26,2021-06-08
R04T1Y24509,BTC040X29,2021-06-03
R04T1Y24619,BTC040X39,2021-06-08
R04T1Y25205,BTC040X09,2021-06-17
R04T1Y25304,BTC040X15,2021-06-15
R04T1Y25311,BTC040X17,2021-06-09
R04T1Y25411,BTC040X25,2021-06-19
R04T1Y26110,BTC040X04,2021-06-07
R04T1Y26300,BTC040X11,2021-06-04
R04T1Y26401,BTC040X20,2021-06-19
R04T1Y26413,BTC040X21,2021-06-02
R04T1Y26519,BTC040X27,2021-06-16
R04T2Y20116,BTC040X05,2021-06-13
R04T2Y20304,BTC040X16,2021-06-03
R04T2Y20307,BTC040X18,2021-06-07
R04T2Y20315,BTC040X20,2021-06-19
R04T2Y21315,BTC040X26,2021-06-08
R04T2Y21412,BTC040X29,2021-06-03
R04T2Y21416,BTC040X32,2021-06-13
R04T2Y22100,BTC040X01,2021-06-03
R04T2Y22114,BTC040X07,2021-06-06
R04T2Y22210,BTC040X13,2021-06-01
R04T2Y22315,BTC040X24,2021-06-13
R04T2Y22317,BTC040X25,2021-06-19
R04T2Y22407,BTC040X30,2021-06-04
R04T2Y22410,BTC040X31,2021-06-05
R04T2Y22509,BTC040X36,2021-06-16
R04T2Y22511,BTC040X38,2021-06-17
R04T2Y22615,BTC040X44,2021-06-11
R04T2Y23201,BTC040X06,2021-06-03
R04T2Y23211,BTC040X08,2021-06-05
R04T2Y23305,BTC040X14,2021-06-02
R04T2Y23409,BTC040X21,2021-06-02
R04T2Y23514,BTC040X33,2021-06-18
R04T2Y23602,BTC040X37,2021-06-02
R04T2Y24317,BTC040X16,2021-06-03
R04T2Y25115,BTC040X04,2021-06-07
R04T2Y25201,BTC040X08,2021-06-05
R04T2Y25309,BTC040X16,2021-06-03
R04T2Y25516,BTC040X34,2021-06-12
R04T2Y26103,BTC040X02,2021-06-01
R04T2Y26311,BTC040X15,2021-06-15
R04T2Y26314,BTC040X18,2021-06-07
R04T2Y26317,BTC040X19,2021-06-06
R04T3Y20102,BTC040X01,2021-06-03
R04T3Y20300,BTC040X14,2021-06-02
R04T3Y20302,BTC040X15,2021-06-15
R04T3Y20407,BTC040X25,2021-06-19
R04T3Y20619,BTC040X40,2021-06-09
R04T3Y21103,BTC040X03,2021-06-16
R04T3Y21114,BTC040X08,2021-06-05
R04T3Y21115,BTC040X09,2021-06-17
R04T3Y21305,BTC040X23,2021-06-01
R04T3Y21405,BTC040X27,2021-06-16
R04T3Y21413,BTC040X30,2021-06-04
R04T3Y21415,BTC040X31,2021-06-05
R04T3Y21505,BTC040X37,2021-06-02
R04T3Y21518,BTC040X39,2021-06-08
R04T3Y21600,BTC040X40,2021-06-09
R04T3Y21602,BTC040X41,2021-06-16
R04T3Y21608,BTC040X44,2021-06-11
R04T3Y22104,BTC040X02,2021-06-01
R04T3Y22207,BTC040X11,2021-06-04
R04T3Y22211,BTC040X14,2021-06-02
R04T3Y22600,BTC040X41,2021-06-16
R04T3Y22606,BTC040X43,2021-06-05
R04T3Y22618,BTC040X45,2021-06-07
R04T3Y23112,BTC040X03,2021-06-16
R04T3Y23412,BTC040X22,2021-06-12
R04T3Y23507,BTC040X27,2021-06-16
R04T3Y23604,BTC040X38,2021-06-17
R04T3Y24110,BTC040X05,2021-06-13
R04T3Y24114,BTC040X06,2021-06-03
R04T3Y24300,BTC040X12,2021-06-01
R04T3Y25117,BTC040X05,2021-06-13
R04T3Y25118,BTC040X06,2021-06-03
R04T3Y25300,BTC040X13,2021-06-01
R04T3Y25301,BTC040X14,2021-06-02
R04T3Y25314,BTC040X18,2021-06-07
R04T3Y25317,BTC040X19,2021-06-06
R04T3Y25319,BTC040X20,2021-06-19
R04T3Y25402,BTC040X22,2021-06-12
R04T3Y25418,BTC040X28,2021-06-06
R04T3Y25509,BTC040X32,2021-06-13
R04T3Y26116,BTC040X06,2021-06-03
R04T3Y26211,BTC040X09,2021-06-17
R04T4Y20211,BTC040X10,2021-06-19
R04T4Y20316,BTC040X21,2021-06-02
R04T4Y20410,BTC040X27,2021-06-16
R04T4Y20601,BTC040X33,2021-06-18
R04T4Y21102,BTC040X02,2021-06-01
R04T4Y21105,BTC040X04,2021-06-07
R04T4Y21110,BTC040X05,2021-06-13
R04T4Y21112,BTC040X06,2021-06-03
R04T4Y21118,BTC040X11,2021-06-04
R04T4Y21417,BTC040X33,2021-06-18
R04T4Y21418,BTC040X34,2021-06-12
R04T4Y21503,BTC040X36,2021-06-16
R04T4Y21603,BTC040X42,2021-06-14
R04T4Y21617,BTC040X50,2021-06-07
R04T4Y22117,BTC040X08,2021-06-05
R04T4Y22300,BTC040X17,2021-06-09
R04T4Y22405,BTC040X29,2021-06-03
R04T4Y22605,BTC040X42,2021-06-14
R04T4Y23105,BTC040X01,2021-06-03
R04T4Y23217,BTC040X11,2021-06-04
R04T4Y23512,BTC040X32,2021-06-13
R04T4Y23516,BTC040X34,2021-06-12
R04T4Y23607,BTC040X39,2021-06-08
R04T4Y24306,BTC040X14,2021-06-02
R04T4Y24416,BTC040X23,2021-06-01
R04T4Y24519,BTC040X30,2021-06-04
R04T4Y24601,BTC040X31,2021-06-05
R04T4Y25109,BTC040X03,2021-06-16
R04T4Y25405,BTC040X24,2021-06-13
R04T4Y25502,BTC040X30,2021-06-04
R04T4Y25508,BTC040X31,2021-06-05
R04T4Y26108,BTC040X03,2021-06-16
R04T4Y26208,BTC040X08,2021-06-05
R04T4Y26303,BTC040X13,2021-06-01
R04T4Y26414,BTC040X22,2021-06-12
R04T4Y26501,BTC040X25,2021-06-19
R04T4Y26609,BTC040X29,2021-06-03
R04T5Y20106,BTC040X02,2021-06-01
R04T5Y20111,BTC040X03,2021-06-16
R04T5Y20117,BTC040X06,2021-06-03
R04T5Y20119,BTC040X07,2021-06-06
R04T5Y20306,BTC040X17,2021-06-09
R04T5Y20312,BTC040X19,2021-06-06
R04T5Y20605,BTC040X34,2021-06-12
R04T5Y20618,BTC040X39,2021-06-08
R04T5Y21607,BTC040X43,2021-06-05
R04T5Y21610,BTC040X45,2021-06-07
R04T5Y21613,BTC040X48,2021-06-08
R04T5Y22105,BTC040X03,2021-06-16
R04T5Y22113,BTC040X06,2021-06-03
R04T5Y22219,BTC040X16,2021-06-03
R04T5Y22319,BTC040X26,2021-06-08
R04T5Y22510,BTC040X37,2021-06-02
R04T5Y23213,BTC040X09,2021-06-17
R04T5Y23309,BTC040X16,2021-06-03
R04T5Y23508,BTC040X28,2021-06-06
R04T5Y23610,BTC040X40,2021-06-09
R04T5Y24106,BTC040X03,2021-06-16
R04T5Y24108,BTC040X04,2021-06-07
R04T5Y24315,BTC040X15,2021-06-15
R04T5Y24415,BTC040X22,2021-06-12
R04T5Y24418,BTC040X25,2021-06-19
R04T5Y24611,BTC040X35,2021-06-19
R04T5Y24613,BTC040X36,2021-06-16
R04T5Y24614,BTC040X37,2021-06-02
R04T5Y24617,BTC040X38,2021-06-17
R04T5Y25119,BTC040X07,2021-06-06
R04T5Y25404,BTC040X23,2021-06-01
R04T5Y25611,BTC040X37,2021-06-02
R04T5Y25616,BTC040X38,2021-06-17
R04T5Y26115,BTC040X05,2021-06-13
R04T5Y26212,BTC040X10,2021-06-19
R04T5Y26512,BTC040X26,2021-06-08
R04T6Y20210,BTC040X09,2021-06-17
R04T6Y20217,BTC040X13,2021-06-01
R04T6Y20409,BTC040X26,2021-06-08
R04T6Y20419,BTC040X30,2021-06-04
R04T6Y20515,BTC040X32,2021-06-13
R04T6Y20616,BTC040X38,2021-06-17
R04T6Y21119,BTC040X12,2021-06-01
R04T6Y21209,BTC040X16,2021-06-03
R04T6Y21212,BTC040X18,2021-06-07
R04T6Y21218,BTC040X21,2021-06-02
R04T6Y21408,BTC040X28,2021-06-06
R04T6Y21502,BTC040X35,2021-06-19
R04T6Y22216,BTC040X15,2021-06-15
R04T6Y22310,BTC040X21,2021-06-02
R04T6Y22515,BTC040X39,2021-06-08
R04T6Y23114,BTC040X04,2021-06-07
R04T6Y23216,BTC040X10,2021-06-19
R04T6Y23308,BTC040X15,2021-06-15
R04T6Y23317,BTC040X17,2021-06-09
R04T6Y23505,BTC040X26,2021-06-08
R04T6Y23601,BTC040X36,2021-06-16
R04T6Y23614,BTC040X42,2021-06-14
R04T6Y24102,BTC040X02,2021-06-01
R04T6Y24212,BTC040X10,2021-06-19
R04T6Y24318,BTC040X17,2021-06-09
R04T6Y24406,BTC040X20,2021-06-19
R04T6Y25209,BTC040X11,2021-06-04
R04T6Y26117,BTC040X07,2021-06-06
R04T6Y26301,BTC040X12,2021-06-01
R04T6Y26309,BTC040X14,2021-06-02
R04T6Y26312,BTC040X16,2021-06-03
R04T6Y26313,BTC040X17,2021-06-09
R04T7Y20200,BTC040X08,2021-06-05
R04T7Y20214,BTC040X12,2021-06-01
R04T7Y20400,BTC040X23,2021-06-01
R04T7Y20417,BTC040X29,2021-06-03
R04T7Y20607,BTC040X35,2021-06-19
R04T7Y21202,BTC040X13,2021-06-01
R04T7Y21203,BTC040X14,2021-06-02
R04T7Y21211,BTC040X17,2021-06-09
R04T7Y21213,BTC040X19,2021-06-06
R04T7Y21509,BTC040X38,2021-06-17
R04T7Y21614,BTC040X49,2021-06-13
R04T7Y22311,BTC040X22,2021-06-12
R04T7Y22401,BTC040X27,2021-06-16
R04T7Y22403,BTC040X28,2021-06-06
R04T7Y22417,BTC040X34,2021-06-12
R04T7Y23108,BTC040X02,2021-06-01
R04T7Y23402,BTC040X19,2021-06-06
R04T7Y23419,BTC040X24,2021-06-13
R04T7Y23503,BTC040X25,2021-06-19
R04T7Y23509,BTC040X29,2021-06-03
R04T7Y23510,BTC040X30,2021-06-04
R04T7Y24101,BTC040X01,2021-06-03
R04T7Y24201,BTC040X08,2021-06-05
R04T7Y24207,BTC040X09,2021-06-17
R04T7Y24506,BTC040X28,2021-06-06
R04T7Y24602,BTC040X32,2021-06-13
R04T7Y24606,BTC040X33,2021-06-18
R04T7Y24610,BTC040X34,2021-06-12
R04T7Y25107,BTC040X02,2021-06-01
R04T7Y25207,BTC040X10,2021-06-19
R04T7Y25210,BTC040X12,2021-06-01
R04T7Y25414,BTC040X27,2021-06-16
R04T7Y25500,BTC040X29,2021-06-03
R04T7Y25514,BTC040X33,2021-06-18
R04T7Y25519,BTC040X35,2021-06-19
R04T7Y25619,BTC040X39,2021-06-08
R05T0Y20216,BTC050X12,2021-06-05
R05T0Y20311,BTC050X16,2021-06-18
R05T0Y20402,BTC050X20,2021-06-19
R05T0Y21101,BTC050X02,2021-06-11
R05T0Y21111,BTC050X08,2021-06-13
R05T0Y21112,BTC050X09,2021-06-13
R05T0Y21210,BTC050X16,2021-06-18
R05T0Y21401,BTC050X26,2021-06-17
R05T0Y21413,BTC050X32,2021-06-10
R05T0Y22210,BTC050X10,2021-06-15
R05T0Y22317,BTC050X21,2021-06-11
R05T0Y22404,BTC050X22,2021-06-16
R05T0Y22514,BTC050X33,2021-06-16
R05T0Y22517,BTC050X34,2021-06-15
R05T0Y22619,BTC050X43,2021-06-01
R05T0Y23209,BTC050X07,2021-06-13
R05T0Y23411,BTC050X19,2021-06-08
R05T0Y23515,BTC050X29,2021-06-13
R05T0Y23608,BTC050X35,2021-06-16
R05T0Y24209,BTC050X08,2021-06-13
R05T0Y24217,BTC050X11,2021-06-06
R05T0Y24315,BTC050X17,2021-06-04
R05T0Y24317,BTC050X18,2021-06-17
R05T0Y24318,BTC050X19,2021-06-08
R05T0Y24413,BTC050X26,2021-06-17
R05T0Y25100,BTC050X01,2021-06-02
R05T0Y25308,BTC050X14,2021-06-18
R05T0Y25404,BTC050X19,2021-06-08
R05T0Y26116,BTC050X08,2021-06-13
R05T0Y26612,BTC050X47,2021-06-13
R05T1Y20102,BTC050X02,2021-06-11
R05T1Y20105,BTC050X04,2021-06-15
R05T1Y20316,BTC050X19,2021-06-08
R05T1Y20411,BTC050X21,2021-06-11
R05T1Y20417,BTC050X24,2021-06-07
R05T1Y20602,BTC050X33,2021-06-16
R05T1Y21100,BTC050X01,2021-06-02
R05T1Y21103,BTC050X04,2021-06-15
R05T1Y21203,BTC050X13,2021-06-15
R05T1Y21406,BTC050X30,2021-06-17
R05T1Y21516,BTC050X45,2021-06-06
R05T1Y22103,BTC050X02,2021-06-11
R05T1Y22110,BTC050X05,2021-06-12
R05T1Y23303,BTC050X13,2021-06-15
R05T1Y23317,BTC050X14,2021-06-18
R05T1Y23601,BTC050X31,2021-06-09
R05T1Y23612,BTC050X37,2021-06-17
R05T1Y24108,BTC050X03,2021-06-09
R05T1Y24218,BTC050X12,2021-06-05
R05T1Y24403,BTC050X21,2021-06-11
R05T1Y24517,BTC050X34,2021-06-15
R05T1Y24601,BTC050X35,2021-06-16
R05T1Y24602,BTC050X36,2021-06-17
R05T1Y24606,BTC050X37,2021-06-17
R05T1Y25103,BTC050X02,2021-06-11
R05T1Y25208,BTC050X08,2021-06-13
R05T1Y25315,BTC050X16,2021-06-18
R05T1Y25405,BTC050X20,2021-06-19
R05T1Y25510,BTC050X27,2021-06-14
R05T1Y26102,BTC050X02,2021-06-11
R05T1Y26104,BTC050X03,2021-06-09
R05T1Y26106,BTC050X04,2021-06-15
R05T1Y26311,BTC050X19,2021-06-08
R05T1Y26506,BTC050X33,2021-06-16
R05T2Y20505,BTC050X27,2021-06-14
R05T2Y21102,BTC050X03,2021-06-09
R05T2Y21104,BTC050X05,2021-06-12
R05T2Y21116,BTC050X10,2021-06-15
R05T2Y21310,BTC050X22,2021-06-16
R05T2Y21317,BTC050X25,2021-06-02
R05T2Y21415,BTC050X33,2021-06-16
R05T2Y22114,BTC050X06,2021-06-04
R05T2Y22215,BTC050X11,2021-06-06
R05T2Y22306,BTC050X16,2021-06-18
R05T2Y22309,BTC050X17,2021-06-04
R05T2Y22405,BTC050X23,2021-06-19
R05T2Y22414,BTC050X27,2021-06-14
R05T2Y22505,BTC050X30,2021-06-17
R05T2Y22601,BTC050X35,2021-06-16
R05T2Y22602,BTC050X36,2021-06-17
R05T2Y22603,BTC050X37,2021-06-17
R05T2Y23606,BTC050X34,2021-06-15
R05T2Y24103,BTC050X01,2021-06-02
R05T2Y24109,BTC050X04,2021-06-15
R05T2Y24110,BTC050X05,2021-06-12
R05T2Y24207,BTC050X07,2021-06-13
R05T2Y24409,BTC050X23,2021-06-19
R05T2Y24416,BTC050X28,2021-06-09
R05T2Y26114,BTC050X07,2021-06-13
R05T2Y26118,BTC050X09,2021-06-13
R05T2Y26209,BTC050X11,2021-06-06
R05T2Y26213,BTC050X12,2021-06-05
R05T2Y26416,BTC050X29,2021-06-13
R05T2Y26517,BTC050X37,2021-06-17
R05T2Y26518,BTC050X38,2021-06-15
R05T2Y26601,BTC050X41,2021-06-13
R05T3Y20205,BTC050X09,2021-06-13
R05T3Y20314,BTC050X18,2021-06-17
R05T3Y20603,BTC050X34,2021-06-15
R05T3Y20606,BTC050X36,2021-06-17
R05T3Y21202,BTC050X12,2021-06-05
R05T3Y21209,BTC050X15,2021-06-09
R05T3Y21313,BTC050X24,2021-06-07
R05T3Y21410,BTC050X31,2021-06-09
R05T3Y21501,BTC050X37,2021-06-17
R05T3Y21508,BTC050X40,2021-06-14
R05T3Y21514,BTC050X43,2021-06-01
R05T3Y21609,BTC050X47,2021-06-13
R05T3Y21616,BTC050X48,2021-06-16
R05T3Y22100,BTC050X01,2021-06-02
R05T3Y22311,BTC050X18,2021-06-17
R05T3Y22315,BTC050X19,2021-06-08
R05T3Y22502,BTC050X29,2021-06-13
R05T3Y23203,BTC050X04,2021-06-15
R05T3Y23208,BTC050X06,2021-06-04
R05T3Y23300,BTC050X11,2021-06-06
R05T3Y23402,BTC050X16,2021-06-18
R05T3Y23503,BTC050X24,2021-06-07
R05T3Y23504,BTC050X25,2021-06-02
R05T3Y23505,BTC050X26,2021-06-17
R05T3Y25401,BTC050X18,2021-06-17
R05T3Y25416,BTC050X23,2021-06-19
R05T3Y26101,BTC050X01,2021-06-02
R05T3Y26315,BTC050X20,2021-06-19
R05T3Y26408,BTC050X25,2021-06-02
R05T3Y26502,BTC050X31,2021-06-09
R05T3Y26607,BTC050X45,2021-06-06
R05T3Y26608,BTC050X46,2021-06-02
R05T4Y20101,BTC050X01,2021-06-02
R05T4Y20116,BTC050X07,2021-06-13
R05T4Y20414,BTC050X22,2021-06-16
R05T4Y20518,BTC050X30,2021-06-17
R05T4Y20600,BTC050X32,2021-06-10
R05T4Y20608,BTC050X38,2021-06-15
R05T4Y20612,BTC050X39,2021-06-02
R05T4Y20613,BTC050X40,2021-06-14
R05T4Y21110,BTC050X07,2021-06-13
R05T4Y21218,BTC050X17,2021-06-04
R05T4Y21305,BTC050X20,2021-06-19
R05T4Y21503,BTC050X38,2021-06-15
R05T4Y21513,BTC050X42,2021-06-02
R05T4Y22108,BTC050X03,2021-06-09
R05T4Y22407,BTC050X24,2021-06-07
R05T4Y22413,BTC050X26,2021-06-17
R05T4Y22611,BTC050X41,2021-06-13
R05T4Y23102,BTC050X01,2021-06-02
R05T4Y23204,BTC050X05,2021-06-12
R05T4Y23602,BTC050X32,2021-06-10
R05T4Y24214,BTC050X09,2021-06-13
R05T4Y24302,BTC050X14,2021-06-18
R05T4Y24311,BTC050X16,2021-06-18
R05T4Y24412,BTC050X25,2021-06-02
R05T4Y24417,BTC050X29,2021-06-13
R05T4Y24512,BTC050X32,2021-06-10
R05T4Y25111,BTC050X03,2021-06-09
R05T4Y25413,BTC050X22,2021-06-16
R05T4Y25503,BTC050X25,2021-06-02
R05T4Y25616,BTC050X33,2021-06-16
R05T4Y26109,BTC050X05,2021-06-12
R05T4Y26113,BTC050X06,2021-06-04
R05T4Y26207,BTC050X10,2021-06-15
R05T4Y26316,BTC050X21,2021-06-11
R05T4Y26410,BTC050X26,2021-06-17
R05T4Y26415,BTC050X28,2021-06-09
R05T4Y26519,BTC050X39,2021-06-02
R05T4Y26604,BTC050X43,2021-06-01
R05T4Y26618,BTC050X49,2021-06-18
R05T5Y20103,BTC050X03,2021-06-09
R05T5Y20106,BTC050X05,2021-06-12
R05T5Y20113,BTC050X06,2021-06-04
R05T5Y20312,BTC050X17,2021-06-04
R05T5Y20415,BTC050X23,2021-06-19
R05T5Y20500,BTC050X26,2021-06-17
R05T5Y20607,BTC050X37,2021-06-17
R05T5Y21106,BTC050X06,2021-06-04
R05T5Y21311,BTC050X23,2021-06-19
R05T5Y21402,BTC050X27,2021-06-14
R05T5Y21403,BTC050X28,2021-06-09
R05T5Y21416,BTC050X34,2021-06-15
R05T5Y21419,BTC050X35,2021-06-16
R05T5Y21504,BTC050X39,2021-06-02
R05T5Y22109,BTC050X04,2021-06-15
R05T5Y22117,BTC050X07,2021-06-13
R05T5Y22204,BTC050X08,2021-06-13
R05T5Y22209,BTC050X09,2021-06-13
R05T5Y22302,BTC050X14,2021-06-18
R05T5Y22409,BTC050X25,2021-06-02
R05T5Y22508,BTC050X31,2021-06-09
R05T5Y22613,BTC050X42,2021-06-02
R05T5Y23212,BTC050X08,2021-06-13
R05T5Y23214,BTC050X09,2021-06-13
R05T5Y23219,BTC050X10,2021-06-15
R05T5Y23509,BTC050X27,2021-06-14
R05T5Y23512,BTC050X28,2021-06-09
R05T5Y23519,BTC050X30,2021-06-17
R05T5Y23603,BTC050X33,2021-06-16
R05T5Y23609,BTC050X36,2021-06-17
R05T5Y24105,BTC050X02,2021-06-11
R05T5Y24116,BTC050X06,2021-06-04
R05T5Y24319,BTC050X20,2021-06-19
R05T5Y24411,BTC050X24,2021-06-07
R05T5Y24502,BTC050X31,2021-06-09
R05T5Y25201,BTC050X06,2021-06-04
R05T5Y25211,BTC050X09,2021-06-13
R05T5Y25301,BTC050X10,2021-06-15
R05T5Y25500,BTC050X24,2021-06-07
R05T5Y25513,BTC050X28,2021-06-09
R05T5Y26400,BTC050X22,2021-06-16
R05T5Y26402,BTC050X23,2021-06-19
R05T5Y26603,BTC050X42,2021-06-02
R05T6Y20309,BTC050X15,2021-06-09
R05T6Y20418,BTC050X25,2021-06-02
R05T6Y20507,BTC050X28,2021-06-09
R05T6Y20519,BTC050X31,2021-06-09
R05T6Y21200,BTC050X11,2021-06-06
R05T6Y21207,BTC050X14,2021-06-18
R05T6Y21309,BTC050X21,2021-06-11
R05T6Y21405,BTC050X29,2021-06-13
R05T6Y21515,BTC050X44,2021-06-09
R05T6Y21617,BTC050X49,2021-06-18
R05T6Y22218,BTC050X13,2021-06-15
R05T6Y22303,BTC050X15,2021-06-09
R05T6Y22416,BTC050X28,2021-06-09
R05T6Y22509,BTC050X32,2021-06-10
R05T6Y22606,BTC050X39,2021-06-02
R05T6Y22609,BTC050X40,2021-06-14
R05T6Y23119,BTC050X03,2021-06-09
R05T6Y23301,BTC050X12,2021-06-05
R05T6Y23403,BTC050X17,2021-06-04
R05T6Y23406,BTC050X18,2021-06-17
R05T6Y23413,BTC050X20,2021-06-19
R05T6Y24301,BTC050X13,2021-06-15
R05T6Y24303,BTC050X15,2021-06-09
R05T6Y24415,BTC050X27,2021-06-14
R05T6Y24500,BTC050X30,2021-06-17
R05T6Y24613,BTC050X38,2021-06-15
R05T6Y25115,BTC050X04,2021-06-15
R05T6Y25117,BTC050X05,2021-06-12
R05T6Y25304,BTC050X12,2021-06-05
R05T6Y25307,BTC050X13,2021-06-15
R05T6Y25407,BTC050X21,2021-06-11
R05T6Y25507,BTC050X26,2021-06-17
R05T6Y25601,BTC050X30,2021-06-17
R05T6Y25604,BTC050X31,2021-06-09
R05T6Y25606,BTC050X32,2021-06-10
R05T6Y26301,BTC050X13,2021-06-15
R05T6Y26304,BTC050X15,2021-06-09
R05T6Y26306,BTC050X17,2021-06-04
R05T6Y26308,BTC050X18,2021-06-17
R05T6Y26419,BTC050X30,2021-06-17
R05T6Y26513,BTC050X35,2021-06-16
R05T6Y26605,BTC050X44,2021-06-09
R05T7Y20119,BTC050X08,2021-06-13
R05T7Y20207,BTC050X10,2021-06-15
R05T7Y20209,BTC050X11,2021-06-06
R05T7Y20217,BTC050X13,2021-06-15
R05T7Y20303,BTC050X14,2021-06-18
R05T7Y20514,BTC050X29,2021-06-13
R05T7Y20605,BTC050X35,2021-06-16
R05T7Y21219,BTC050X18,2021-06-17
R05T7Y21300,BTC050X19,2021-06-08
R05T7Y21500,BTC050X36,2021-06-17
R05T7Y21509,BTC050X41,2021-06-13
R05T7Y21604,BTC050X46,2021-06-02
R05T7Y22217,BTC050X12,2021-06-05
R05T7Y22316,BTC050X20,2021-06-19
R05T7Y22604,BTC050X38,2021-06-15
R05T7Y23105,BTC050X02,2021-06-11
R05T7Y23318,BTC050X15,2021-06-09
R05T7Y23417,BTC050X21,2021-06-11
R05T7Y23418,BTC050X22,2021-06-16
R05T7Y23501,BTC050X23,2021-06-19
R05T7Y23617,BTC050X38,2021-06-15
R05T7Y24216,BTC050X10,2021-06-15
R05T7Y24407,BTC050X22,2021-06-16
R05T7Y24513,BTC050X33,2021-06-16
R05T7Y25203,BTC050X07,2021-06-13
R05T7Y25302,BTC050X11,2021-06-06
R05T7Y25310,BTC050X15,2021-06-09
R05T7Y25316,BTC050X17,2021-06-04
R05T7Y25517,BTC050X29,2021-06-13
R05T7Y26303,BTC050X14,2021-06-18
R05T7Y26305,BTC050X16,2021-06-18
R05T7Y26404,BTC050X24,2021-06-07
R05T7Y26413,BTC050X27,2021-06-14
R05T7Y26504,BTC050X32,2021-06-10
R05T7Y26512,BTC050X34,2021-06-15
R05T7Y26515,BTC050X36,2021-06-17
R05T7Y26600,BTC050X40,2021-06-14
R05T7Y26614,BTC050X48,2021-06-16
R06T0Y20102,BTC060X02,2021-06-18
R06T0Y20201,BTC060X08,2021-06-12
R06T0Y20215,BTC060X10,2021-06-09
R06T0Y20308,BTC060X14,2021-06-04
R06T0Y20502,BTC060X33,2021-06-03
R06T0Y20608,BTC060X50,2021-06-07
R06T0Y20613,BTC060X51,2021-06-10
R06T0Y20616,BTC060X52,2021-06-01
R06T0Y21109,BTC060X03,2021-06-03
R06T0Y21211,BTC060X12,2021-06-18
R06T0Y21217,BTC060X14,2021-06-04
R06T0Y21303,BTC060X17,2021-06-02
R06T0Y21305,BTC060X18,2021-06-05
R06T0Y21308,BTC060X19,2021-06-16
R06T0Y21314,BTC060X23,2021-06-14
R06T0Y21416,BTC060X32,2021-06-04
R06T0Y22113,BTC060X03,2021-06-03
R06T0Y22304,BTC060X13,2021-06-01
R06T0Y22319,BTC060X19,2021-06-16
R06T0Y22402,BTC060X22,2021-06-18
R06T0Y23415,BTC060X18,2021-06-05
R06T0Y23601,BTC060X28,2021-06-11
R06T0Y23615,BTC060X31,2021-06-08
R06T0Y24301,BTC060X08,2021-06-12
R06T0Y24308,BTC060X11,2021-06-05
R06T0Y24315,BTC060X12,2021-06-18
R06T0Y24609,BTC060X30,2021-06-10
R06T0Y24616,BTC060X31,2021-06-08
R06T0Y25115,BTC060X07,2021-06-09
R06T0Y25214,BTC060X13,2021-06-01
R06T0Y25418,BTC060X30,2021-06-10
R06T0Y26118,BTC060X07,2021-06-09
R06T0Y26200,BTC060X09,2021-06-04
R06T0Y26413,BTC060X27,2021-06-13
R06T0Y26506,BTC060X31,2021-06-08
R06T1Y20101,BTC060X01,2021-06-10
R06T1Y20114,BTC060X05,2021-06-02
R06T1Y20209,BTC060X09,2021-06-04
R06T1Y20219,BTC060X11,2021-06-05
R06T1Y20312,BTC060X16,2021-06-15
R06T1Y20315,BTC060X18,2021-06-05
R06T1Y20400,BTC060X21,2021-06-16
R06T1Y20402,BTC060X23,2021-06-14
R06T1Y20515,BTC060X40,2021-06-02
R06T1Y20601,BTC060X43,2021-06-15
R06T1Y20604,BTC060X46,2021-06-02
R06T1Y20617,BTC060X53,2021-06-09
R06T1Y21114,BTC060X06,2021-06-03
R06T1Y21117,BTC060X07,2021-06-09
R06T1Y21212,BTC060X13,2021-06-01
R06T1Y21404,BTC060X28,2021-06-11
R06T1Y21405,BTC060X29,2021-06-04
R06T1Y21508,BTC060X35,2021-06-06
R06T1Y21612,BTC060X44,2021-06-17
R06T1Y22201,BTC060X07,2021-06-09
R06T1Y22307,BTC060X15,2021-06-13
R06T1Y22601,BTC060X37,2021-06-13
R06T1Y22616,BTC060X43,2021-06-15
R06T1Y23306,BTC060X11,2021-06-05
R06T1Y23418,BTC060X19,2021-06-16
R06T1Y23515,BTC060X26,2021-06-06
R06T1Y24419,BTC060X20,2021-06-01
R06T1Y24502,BTC060X21,2021-06-16
R06T1Y24503,BTC060X22,2021-06-18
R06T1Y24617,BTC060X32,2021-06-04
R06T1Y25203,BTC060X08,2021-06-12
R06T1Y25205,BTC060X10,2021-06-09
R06T1Y25216,BTC060X15,2021-06-13
R06T1Y25413,BTC060X29,2021-06-04
R06T1Y26100,BTC060X01,2021-06-10
R06T1Y26203,BTC060X11,2021-06-05
R06T1Y26207,BTC060X13,2021-06-01
R06T1Y26208,BTC060X14,2021-06-04
R06T1Y26411,BTC060X25,2021-06-03
R06T1Y26511,BTC060X32,2021-06-04
R06T1Y26614,BTC060X38,2021-06-12
R06T1Y26619,BTC060X40,2021-06-02
R06T2Y20305,BTC060X13,2021-06-01
R06T2Y20316,BTC060X19,2021-06-16
R06T2Y20413,BTC060X29,2021-06-04
R06T2Y20516,BTC060X41,2021-06-13
R06T2Y21218,BTC060X15,2021-06-13
R06T2Y21309,BTC060X20,2021-06-01
R06T2Y21310,BTC060X21,2021-06-16
R06T2Y21511,BTC060X37,2021-06-13
R06T2Y22100,BTC060X01,2021-06-10
R06T2Y22303,BTC060X12,2021-06-18
R06T2Y22305,BTC060X14,2021-06-04
R06T2Y22404,BTC060X23,2021-06-14
R06T2Y22417,BTC060X29,2021-06-04
R06T2Y22604,BTC060X39,2021-06-18
R06T2Y22605,BTC060X40,2021-06-02
R06T2Y22617,BTC060X44,2021-06-17
R06T2Y22619,BTC060X46,2021-06-02
R06T2Y23105,BTC060X01,2021-06-10
R06T2Y23212,BTC060X08,2021-06-12
R06T2Y23303,BTC060X10,2021-06-09
R06T2Y23308,BTC060X12,2021-06-18
R06T2Y23614,BTC060X30,2021-06-10
R06T2Y23617,BTC060X32,2021-06-04
R06T2Y24319,BTC060X14,2021-06-04
R06T2Y24506,BTC060X23,2021-06-14
R06T2Y25104,BTC060X02,2021-06-18
R06T2Y25204,BTC060X09,2021-06-04
R06T2Y25302,BTC060X18,2021-06-05
R06T2Y25403,BTC060X25,2021-06-03
R06T2Y25409,BTC060X28,2021-06-11
R06T2Y25612,BTC060X37,2021-06-13
R06T2Y25618,BTC060X40,2021-06-02
R06T2Y26210,BTC060X15,2021-06-13
R06T2Y26218,BTC060X17,2021-06-02
R06T2Y26603,BTC060X36,2021-06-15
R06T2Y26615,BTC060X39,2021-06-18
R06T3Y20117,BTC060X06,2021-06-03
R06T3Y20412,BTC060X28,2021-06-11
R06T3Y20416,BTC060X30,2021-06-10
R06T3Y20514,BTC060X39,2021-06-18
R06T3Y21104,BTC060X01,2021-06-10
R06T3Y21302,BTC060X16,2021-06-15
R06T3Y21316,BTC060X25,2021-06-03
R06T3Y21402,BTC060X26,2021-06-06
R06T3Y21411,BTC060X31,2021-06-08
R06T3Y21515,BTC060X38,2021-06-12
R06T3Y21517,BTC060X39,2021-06-18
R06T3Y22117,BTC060X05,2021-06-02
R06T3Y22209,BTC060X10,2021-06-09
R06T3Y22414,BTC060X28,2021-06-11
R06T3Y22600,BTC060X36,2021-06-15
R06T3Y22602,BTC060X38,2021-06-12
R06T3Y22615,BTC060X42,2021-06-06
R06T3Y23206,BTC060X06,2021-06-03
R06T3Y23402,BTC060X14,2021-06-04
R06T3Y23406,BTC060X15,2021-06-13
R06T3Y23503,BTC060X22,2021-06-18
R06T3Y23514,BTC060X25,2021-06-03
R06T3Y23609,BTC060X29,2021-06-04
R06T3Y24206,BTC060X04,2021-06-12
R06T3Y24410,BTC060X17,2021-06-02
R06T3Y24606,BTC060X29,2021-06-04
R06T3Y24618,BTC060X33,2021-06-03
R06T3Y25304,BTC060X19,2021-06-16
R06T3Y25316,BTC060X23,2021-06-14
R06T3Y25405,BTC060X26,2021-06-06
R06T3Y26201,BTC060X10,2021-06-09
R06T3Y26310,BTC060X20,2021-06-01
R06T3Y26514,BTC060X33,2021-06-03
R06T4Y20119,BTC060X07,2021-06-09
R06T4Y20301,BTC060X12,2021-06-18
R06T4Y20404,BTC060X25,2021-06-03
R06T4Y20513,BTC060X38,2021-06-12
R06T4Y20602,BTC060X44,2021-06-17
R06T4Y20603,BTC060X45,2021-06-11
R06T4Y20607,BTC060X49,2021-06-10
R06T4Y21112,BTC060X05,2021-06-02
R06T4Y21403,BTC060X27,2021-06-13
R06T4Y21417,BTC060X33,2021-06-03
R06T4Y21502,BTC060X34,2021-06-15
R06T4Y21600,BTC060X41,2021-06-13
R06T4Y22119,BTC060X06,2021-06-03
R06T4Y22204,BTC060X08,2021-06-12
R06T4Y22210,BTC060X11,2021-06-05
R06T4Y22407,BTC060X24,2021-06-16
R06T4Y22408,BTC060X25,2021-06-03
R06T4Y22409,BTC060X26,2021-06-06
R06T4Y22412,BTC060X27,2021-06-13
R06T4Y22513,BTC060X33,2021-06-03
R06T4Y22519,BTC060X35,2021-06-06
R06T4Y22614,BTC060X41,2021-06-13
R06T4Y22618,BTC060X45,2021-06-11
R06T4Y23116,BTC060X04,2021-06-12
R06T4Y23500,BTC060X21,2021-06-16
R06T4Y23513,BTC060X24,2021-06-16
R06T4Y24110,BTC060X01,2021-06-10
R06T4Y24307,BTC060X10,2021-06-09
R06T4Y24318,BTC060X13,2021-06-01
R06T4Y24401,BTC060X15,2021-06-13
R06T4Y25106,BTC060X03,2021-06-03
R06T4Y25107,BTC060X04,2021-06-12
R06T4Y25206,BTC060X11,2021-06-05
R06T4Y25215,BTC060X14,2021-06-04
R06T4Y25315,BTC060X22,2021-06-18
R06T4Y25419,BTC060X31,2021-06-08
R06T4Y25500,BTC060X32,2021-06-04
R06T4Y26105,BTC060X02,2021-06-18
R06T4Y26111,BTC060X05,2021-06-02
R06T4Y26300,BTC060X18,2021-06-05
R06T4Y26316,BTC060X23,2021-06-14
R06T4Y26419,BTC060X28,2021-06-11
R06T5Y20403,BTC060X24,2021-06-16
R06T5Y20503,BTC060X34,2021-06-15
R06T5Y20508,BTC060X35,2021-06-06
R06T5Y20517,BTC060X42,2021-06-06
R06T5Y21110,BTC060X04,2021-06-12
R06T5Y21201,BTC060X08,2021-06-12
R06T5Y21313,BTC060X22,2021-06-18
R06T5Y21315,BTC060X24,2021-06-16
R06T5Y21509,BTC060X36,2021-06-15
R06T5Y21519,BTC060X40,2021-06-02
R06T5Y21608,BTC060X42,2021-06-06
R06T5Y21611,BTC060X43,2021-06-15
R06T5Y22309,BTC060X16,2021-06-15
R06T5Y22318,BTC060X18,2021-06-05
R06T5Y22400,BTC060X20,2021-06-01
R06T5Y22401,BTC060X21,2021-06-16
R06T5Y22419,BTC060X30,2021-06-10
R06T5Y23211,BTC060X07,2021-06-09
R06T5Y23316,BTC060X13,2021-06-01
R06T5Y23410,BTC060X16,2021-06-15
R06T5Y23412,BTC060X17,2021-06-02
R06T5Y24111,BTC060X02,2021-06-18
R06T5Y24213,BTC060X05,2021-06-02
R06T5Y24214,BTC060X06,2021-06-03
R06T5Y24215,BTC060X07,2021-06-09
R06T5Y24406,BTC060X16,2021-06-15
R06T5Y24514,BTC060X26,2021-06-06
R06T5Y25114,BTC060X06,2021-06-03
R06T5Y25208,BTC060X12,2021-06-18
R06T5Y25217,BTC060X16,2021-06-15
R06T5Y25607,BTC060X35,2021-06-06
R06T5Y25615,BTC060X38,2021-06-12
R06T5Y26107,BTC060X03,2021-06-03
R06T5Y26119,BTC060X08,2021-06-12
R06T5Y26204,BTC060X12,2021-06-18
R06T5Y26412,BTC060X26,2021-06-06
R06T5Y26500,BTC060X29,2021-06-04
R06T5Y26519,BTC060X34,2021-06-15
R06T6Y20104,BTC060X03,2021-06-03
R06T6Y20310,BTC060X15,2021-06-13
R06T6Y20314,BTC060X17,2021-06-02
R06T6Y20317,BTC060X20,2021-06-01
R06T6Y20409,BTC060X26,2021-06-06
R06T6Y20418,BTC060X31,2021-06-08
R06T6Y20511,BTC060X37,2021-06-13
R06T6Y20605,BTC060X47,2021-06-01
R06T6Y20606,BTC060X48,2021-06-03
R06T6Y21105,BTC060X02,2021-06-18
R06T6Y21205,BTC060X09,2021-06-04
R06T6Y21210,BTC060X11,2021-06-05
R06T6Y21410,BTC060X30,2021-06-10
R06T6Y21613,BTC060X45,2021-06-11
R06T6Y23111,BTC060X02,2021-06-18
R06T6Y23201,BTC060X05,2021-06-02
R06T6Y24513,BTC060X25,2021-06-03
R06T6Y25219,BTC060X17,2021-06-02
R06T6Y25306,BTC060X20,2021-06-01
R06T6Y25313,BTC060X21,2021-06-16
R06T6Y25601,BTC060X34,2021-06-15
R06T6Y26110,BTC060X04,2021-06-12
R06T6Y26307,BTC060X19,2021-06-16
R06T6Y26504,BTC060X30,2021-06-10
R06T7Y20107,BTC060X04,2021-06-12
R06T7Y20401,BTC060X22,2021-06-18
R06T7Y20410,BTC060X27,2021-06-13
R06T7Y20419,BTC060X32,2021-06-04
R06T7Y20510,BTC060X36,2021-06-15
R06T7Y21207,BTC060X10,2021-06-09
R06T7Y21614,BTC060X46,2021-06-02
R06T7Y21619,BTC060X47,2021-06-01
R06T7Y22106,BTC060X02,2021-06-18
R06T7Y22115,BTC060X04,2021-06-12
R06T7Y22208,BTC060X09,2021-06-04
R06T7Y22314,BTC060X17,2021-06-02
R06T7Y22508,BTC060X31,2021-06-08
R06T7Y22511,BTC060X32,2021-06-04
R06T7Y22517,BTC060X34,2021-06-15
R06T7Y23112,BTC060X03,2021-06-03
R06T7Y23218,BTC060X09,2021-06-04
R06T7Y23419,BTC060X20,2021-06-01
R06T7Y23509,BTC060X23,2021-06-14
R06T7Y23518,BTC060X27,2021-06-13
R06T7Y24118,BTC060X03,2021-06-03
R06T7Y24306,BTC060X09,2021-06-04
R06T7Y24416,BTC060X18,2021-06-05
R06T7Y24417,BTC060X19,2021-06-16
R06T7Y24507,BTC060X24,2021-06-16
R06T7Y24518,BTC060X27,2021-06-13
R06T7Y24600,BTC060X28,2021-06-11
R06T7Y25100,BTC060X01,2021-06-10
R06T7Y25112,BTC060X05,2021-06-02
R06T7Y25400,BTC060X24,2021-06-16
R06T7Y25407,BTC060X27,2021-06-13
R06T7Y25514,BTC060X33,2021-06-03
R06T7Y25608,BTC060X36,2021-06-15
R06T7Y25616,BTC060X39,2021-06-18
R06T7Y26113,BTC060X06,2021-06-03
R06T7Y26216,BTC060X16,2021-06-15
R06T7Y26311,BTC060X21,2021-06-16
R06T7Y26315,BTC060X22,2021-06-18
R06T7Y26409,BTC060X24,2021-06-16
R06T7Y26602,BTC060X35,2021-06-06
R06T7Y26606,BTC060X37,2021-06-13
R07T0Y20107,BTC070X05,2021-06-01
R07T0Y20318,BTC070X16,2021-06-09
R07T0Y20508,BTC070X29,2021-06-17
R07T0Y20605,BTC070X38,2021-06-05
R07T0Y21506,BTC070X29,2021-06-17
R07T0Y21509,BTC070X31,2021-06-09
R07T0Y21511,BTC070X32,2021-06-08
R07T0Y22103,BTC070X02,2021-06-07
R07T0Y22207,BTC070X13,2021-06-13
R07T0Y22605,BTC070X32,2021-06-08
R07T0Y23107,BTC070X04,2021-06-16
R07T0Y23218,BTC070X11,2021-06-06
R07T0Y23415,BTC070X24,2021-06-08
R07T0Y23502,BTC070X25,2021-06-08
R07T0Y23617,BTC070X38,2021-06-05
R07T0Y24201,BTC070X08,2021-06-07
R07T0Y24315,BTC070X17,2021-06-01
R07T0Y24501,BTC070X26,2021-06-05
R07T0Y24606,BTC070X34,2021-06-12
R07T0Y25201,BTC070X06,2021-06-14
R07T0Y25207,BTC070X08,2021-06-07
R07T0Y25211,BTC070X09,2021-06-04
R07T0Y25508,BTC070X20,2021-06-07
R07T0Y26302,BTC070X11,2021-06-06
R07T0Y26418,BTC070X23,2021-06-14
R07T0Y26515,BTC070X27,2021-06-09
R07T0Y26609,BTC070X31,2021-06-09
R07T1Y20302,BTC070X11,2021-06-06
R07T1Y20305,BTC070X13,2021-06-13
R07T1Y20308,BTC070X14,2021-06-11
R07T1Y20411,BTC070X22,2021-06-13
R07T1Y20414,BTC070X23,2021-06-14
R07T1Y20603,BTC070X36,2021-06-13
R07T1Y20612,BTC070X40,2021-06-02
R07T1Y21100,BTC070X01,2021-06-11
R07T1Y21107,BTC070X04,2021-06-16
R07T1Y21118,BTC070X06,2021-06-14
R07T1Y21500,BTC070X26,2021-06-05
R07T1Y21515,BTC070X33,2021-06-17
R07T1Y21603,BTC070X36,2021-06-13
R07T1Y21607,BTC070X38,2021-06-05
R07T1Y22114,BTC070X08,2021-06-07
R07T1Y22118,BTC070X10,2021-06-02
R07T1Y22203,BTC070X11,2021-06-06
R07T1Y22217,BTC070X15,2021-06-06
R07T1Y22510,BTC070X25,2021-06-08
R07T1Y22604,BTC070X31,2021-06-09
R07T1Y23216,BTC070X10,2021-06-02
R07T1Y23304,BTC070X13,2021-06-13
R07T1Y23310,BTC070X16,2021-06-09
R07T1Y23519,BTC070X30,2021-06-10
R07T1Y24302,BTC070X13,2021-06-13
R07T1Y24312,BTC070X16,2021-06-09
R07T1Y24418,BTC070X24,2021-06-08
R07T1Y24507,BTC070X28,2021-06-15
R07T1Y24608,BTC070X35,2021-06-06
R07T1Y24609,BTC070X36,2021-06-13
R07T1Y25113,BTC070X03,2021-06-11
R07T1Y25409,BTC070X15,2021-06-06
R07T1Y25515,BTC070X21,2021-06-15
R07T1Y26616,BTC070X34,2021-06-12
R07T2Y20113,BTC070X06,2021-06-14
R07T2Y20315,BTC070X15,2021-06-06
R07T2Y20400,BTC070X17,2021-06-01
R07T2Y20501,BTC070X26,2021-06-05
R07T2Y20604,BTC070X37,2021-06-01
R07T2Y20607,BTC070X39,2021-06-11
R07T2Y21403,BTC070X20,2021-06-07
R07T2Y21507,BTC070X30,2021-06-10
R07T2Y21615,BTC070X39,2021-06-11
R07T2Y22116,BTC070X09,2021-06-04
R07T2Y22210,BTC070X14,2021-06-11
R07T2Y22400,BTC070X19,2021-06-08
R07T2Y23106,BTC070X03,2021-06-11
R07T2Y23204,BTC070X08,2021-06-07
R07T2Y23303,BTC070X12,2021-06-08
R07T2Y23509,BTC070X27,2021-06-09
R07T2Y23518,BTC070X29,2021-06-17
R07T2Y23603,BTC070X32,2021-06-08
R07T2Y24403,BTC070X19,2021-06-08
R07T2Y24407,BTC070X22,2021-06-13
R07T2Y25109,BTC070X01,2021-06-11
R07T2Y25500,BTC070X17,2021-06-01
R07T2Y25504,BTC070X18,2021-06-12
R07T2Y25607,BTC070X29,2021-06-17
R07T2Y26112,BTC070X06,2021-06-14
R07T2Y26311,BTC070X13,2021-06-13
R07T2Y26404,BTC070X17,2021-06-01
R07T2Y26513,BTC070X26,2021-06-05
R07T3Y20213,BTC070X09,2021-06-04
R07T3Y20519,BTC070X34,2021-06-12
R07T3Y21103,BTC070X02,2021-06-07
R07T3Y21104,BTC070X03,2021-06-11
R07T3Y21208,BTC070X09,2021-06-04
R07T3Y21306,BTC070X15,2021-06-06
R07T3Y21317,BTC070X18,2021-06-12
R07T3Y21502,BTC070X27,2021-06-09
R07T3Y21505,BTC070X28,2021-06-15
R07T3Y22101,BTC070X01,2021-06-11
R07T3Y22107,BTC070X05,2021-06-01
R07T3Y22405,BTC070X21,2021-06-15
R07T3Y23102,BTC070X01,2021-06-11
R07T3Y23312,BTC070X17,2021-06-01
R07T3Y23404,BTC070X20,2021-06-07
R07T3Y23506,BTC070X26,2021-06-05
R07T3Y23600,BTC070X31,2021-06-09
R07T3Y23610,BTC070X35,2021-06-06
R07T3Y24114,BTC070X05,2021-06-01
R07T3Y24118,BTC070X07,2021-06-19
R07T3Y24214,BTC070X12,2021-06-08
R07T3Y24405,BTC070X21,2021-06-15
R07T3Y24505,BTC070X27,2021-06-09
R07T3Y24518,BTC070X31,2021-06-09
R07T3Y24604,BTC070X33,2021-06-17
R07T3Y25505,BTC070X19,2021-06-08
R07T3Y25517,BTC070X22,2021-06-13
R07T3Y25600,BTC070X23,2021-06-14
R07T3Y25604,BTC070X27,2021-06-09
R07T3Y25616,BTC070X32,2021-06-08
R07T3Y26217,BTC070X10,2021-06-02
R07T3Y26303,BTC070X12,2021-06-08
R07T4Y20218,BTC070X10,2021-06-02
R07T4Y20509,BTC070X30,2021-06-10
R07T4Y20510,BTC070X31,2021-06-09
R07T4Y21204,BTC070X07,2021-06-19
R07T4Y21205,BTC070X08,2021-06-07
R07T4Y21211,BTC070X10,2021-06-02
R07T4Y21314,BTC070X17,2021-06-01
R07T4Y21402,BTC070X19,2021-06-08
R07T4Y21409,BTC070X21,2021-06-15
R07T4Y21412,BTC070X22,2021-06-13
R07T4Y21413,BTC070X23,2021-06-14
R07T4Y21605,BTC070X37,2021-06-01
R07T4Y22409,BTC070X22,2021-06-13
R07T4Y22513,BTC070X26,2021-06-05
R07T4Y22514,BTC070X27,2021-06-09
R07T4Y22515,BTC070X28,2021-06-15
R07T4Y22618,BTC070X34,2021-06-12
R07T4Y23108,BTC070X05,2021-06-01
R07T4Y23201,BTC070X07,2021-06-19
R07T4Y23308,BTC070X15,2021-06-06
R07T4Y23402,BTC070X19,2021-06-08
R07T4Y23408,BTC070X22,2021-06-13
R07T4Y23613,BTC070X36,2021-06-13
R07T4Y24101,BTC070X01,2021-06-11
R07T4Y24117,BTC070X06,2021-06-14
R07T4Y24205,BTC070X09,2021-06-04
R07T4Y25118,BTC070X05,2021-06-01
R07T4Y25407,BTC070X14,2021-06-11
R07T4Y25601,BTC070X24,2021-06-08
R07T4Y25606,BTC070X28,2021-06-15
R07T4Y25615,BTC070X31,2021-06-09
R07T4Y26318,BTC070X15,2021-06-06
R07T4Y26403,BTC070X16,2021-06-09
R07T4Y26409,BTC070X19,2021-06-08
R07T4Y26410,BTC070X20,2021-06-07
R07T4Y26417,BTC070X22,2021-06-13
R07T4Y26603,BTC070X30,2021-06-10
R07T4Y26615,BTC070X33,2021-06-17
R07T5Y20105,BTC070X04,2021-06-16
R07T5Y20403,BTC070X18,2021-06-12
R07T5Y20406,BTC070X19,2021-06-08
R07T5Y20504,BTC070X27,2021-06-09
R07T5Y20518,BTC070X33,2021-06-17
R07T5Y21215,BTC070X12,2021-06-08
R07T5Y21418,BTC070X25,2021-06-08
R07T5Y22105,BTC070X04,2021-06-16
R07T5Y22206,BTC070X12,2021-06-08
R07T5Y22313,BTC070X18,2021-06-12
R07T5Y22411,BTC070X23,2021-06-14
R07T5Y23314,BTC070X18,2021-06-12
R07T5Y23513,BTC070X28,2021-06-15
R07T5Y24109,BTC070X03,2021-06-11
R07T5Y24207,BTC070X11,2021-06-06
R07T5Y24316,BTC070X18,2021-06-12
R07T5Y24404,BTC070X20,2021-06-07
R07T5Y24515,BTC070X30,2021-06-10
R07T5Y25115,BTC070X04,2021-06-16
R07T5Y25405,BTC070X13,2021-06-13
R07T5Y25410,BTC070X16,2021-06-09
R07T5Y26104,BTC070X02,2021-06-07
R07T5Y26115,BTC070X07,2021-06-19
R07T5Y26214,BTC070X09,2021-06-04
R07T5Y26416,BTC070X21,2021-06-15
R07T5Y26600,BTC070X29,2021-06-17
R07T6Y20100,BTC070X01,2021-06-11
R07T6Y20102,BTC070X02,2021-06-07
R07T6Y20203,BTC070X07,2021-06-19
R07T6Y20210,BTC070X08,2021-06-07
R07T6Y20409,BTC070X20,2021-06-07
R07T6Y20410,BTC070X21,2021-06-15
R07T6Y20506,BTC070X28,2021-06-15
R07T6Y20516,BTC070X32,2021-06-08
R07T6Y20616,BTC070X41,2021-06-01
R07T6Y21518,BTC070X34,2021-06-12
R07T6Y22104,BTC070X03,2021-06-11
R07T6Y22112,BTC070X07,2021-06-19
R07T6Y22600,BTC070X29,2021-06-17
R07T6Y22603,BTC070X30,2021-06-10
R07T6Y23200,BTC070X06,2021-06-14
R07T6Y23307,BTC070X14,2021-06-11
R07T6Y23604,BTC070X33,2021-06-17
R07T6Y24105,BTC070X02,2021-06-07
R07T6Y24112,BTC070X04,2021-06-16
R07T6Y24206,BTC070X10,2021-06-02
R07T6Y24311,BTC070X15,2021-06-06
R07T6Y24514,BTC070X29,2021-06-17
R07T6Y24617,BTC070X37,2021-06-01
R07T6Y25205,BTC070X07,2021-06-19
R07T6Y25309,BTC070X10,2021-06-02
R07T6Y25313,BTC070X11,2021-06-06
R07T6Y25316,BTC070X12,2021-06-08
R07T6Y25602,BTC070X25,2021-06-08
R07T6Y25611,BTC070X30,2021-06-10
R07T6Y26204,BTC070X08,2021-06-07
R07T6Y26316,BTC070X14,2021-06-11
R07T6Y26406,BTC070X18,2021-06-12
R07T6Y26503,BTC070X25,2021-06-08
R07T6Y26516,BTC070X28,2021-06-15
R07T6Y26613,BTC070X32,2021-06-08
R07T7Y20104,BTC070X03,2021-06-11
R07T7Y20303,BTC070X12,2021-06-08
R07T7Y20415,BTC070X24,2021-06-08
R07T7Y20417,BTC070X25,2021-06-08
R07T7Y20602,BTC070X35,2021-06-06
R07T7Y21111,BTC070X05,2021-06-01
R07T7Y21212,BTC070X11,2021-06-06
R07T7Y21219,BTC070X13,2021-06-13
R07T7Y21304,BTC070X14,2021-06-11
R07T7Y21307,BTC070X16,2021-06-09
R07T7Y21416,BTC070X24,2021-06-08
R07T7Y21519,BTC070X35,2021-06-06
R07T7Y22109,BTC070X06,2021-06-14
R07T7Y22300,BTC070X16,2021-06-09
R07T7Y22309,BTC070X17,2021-06-01
R07T7Y22402,BTC070X20,2021-06-07
R07T7Y22414,BTC070X24,2021-06-08
R07T7Y22617,BTC070X33,2021-06-17
R07T7Y23103,BTC070X02,2021-06-07
R07T7Y23208,BTC070X09,2021-06-04
R07T7Y23406,BTC070X21,2021-06-15
R07T7Y23411,BTC070X23,2021-06-14
R07T7Y23607,BTC070X34,2021-06-12
R07T7Y23614,BTC070X37,2021-06-01
R07T7Y24309,BTC070X14,2021-06-11
R07T7Y24410,BTC070X23,2021-06-14
R07T7Y24500,BTC070X25,2021-06-08
R07T7Y24601,BTC070X32,2021-06-08
R07T7Y25110,BTC070X02,2021-06-07
R07T7Y25603,BTC070X26,2021-06-05
R07T7Y26103,BTC070X01,2021-06-11
R07T7Y26109,BTC070X03,2021-06-11
R07T7Y26110,BTC070X04,2021-06-16
R07T7Y26111,BTC070X05,2021-06-01
R07T7Y26501,BTC070X24,2021-06-08
R08T0Y20103,BTC080X01,2021-06-13
R08T0Y20112,BTC080X04,2021-06-03
R08T0Y20307,BTC080X17,2021-06-12
R08T0Y20519,BTC080X30,2021-06-15
R08T0Y20618,BTC080X40,2021-06-19
R08T0Y21116,BTC080X09,2021-06-05
R08T0Y21514,BTC080X39,2021-06-18
R08T0Y22317,BTC080X14,2021-06-14
R08T0Y22405,BTC080X18,2021-06-06
R08T0Y22413,BTC080X19,2021-06-09
R08T0Y22415,BTC080X20,2021-06-13
R08T0Y22610,BTC080X32,2021-06-16
R08T0Y22617,BTC080X35,2021-06-02
R08T0Y23111,BTC080X05,2021-06-16
R08T0Y23600,BTC080X32,2021-06-16
R08T0Y23619,BTC080X37,2021-06-07
R08T0Y24105,BTC080X03,2021-06-06
R08T0Y24109,BTC080X05,2021-06-16
R08T0Y24118,BTC080X09,2021-06-05
R08T0Y24200,BTC080X11,2021-06-09
R08T0Y24315,BTC080X25,2021-06-13
R08T0Y24401,BTC080X27,2021-06-06
R08T0Y24503,BTC080X33,2021-06-13
R08T0Y24519,BTC080X39,2021-06-18
R08T0Y25100,BTC080X01,2021-06-13
R08T0Y25200,BTC080X10,2021-06-02
R08T0Y25205,BTC080X12,2021-06-17
R08T0Y25312,BTC080X21,2021-06-16
R08T0Y25507,BTC080X31,2021-06-09
R08T0Y25610,BTC080X38,2021-06-02
R08T0Y25612,BTC080X39,2021-06-18
R08T0Y26215,BTC080X10,2021-06-02
R08T0Y26301,BTC080X11,2021-06-09
R08T0Y26316,BTC080X16,2021-06-03
R08T0Y26404,BTC080X20,2021-06-13
R08T0Y26410,BTC080X23,2021-06-18
R08T0Y26500,BTC080X27,2021-06-06
R08T1Y20212,BTC080X09,2021-06-05
R08T1Y20303,BTC080X14,2021-06-14
R08T1Y20507,BTC080X26,2021-06-16
R08T1Y21110,BTC080X05,2021-06-16
R08T1Y21315,BTC080X24,2021-06-07
R08T1Y21400,BTC080X26,2021-06-16
R08T1Y21403,BTC080X27,2021-06-06
R08T1Y21406,BTC080X28,2021-06-03
R08T1Y21604,BTC080X42,2021-06-05
R08T1Y22315,BTC080X13,2021-06-18
R08T1Y22509,BTC080X25,2021-06-13
R08T1Y22611,BTC080X33,2021-06-13
R08T1Y23305,BTC080X14,2021-06-14
R08T1Y23411,BTC080X19,2021-06-09
R08T1Y23514,BTC080X28,2021-06-03
R08T1Y24204,BTC080X14,2021-06-14
R08T1Y24208,BTC080X16,2021-06-03
R08T1Y24302,BTC080X21,2021-06-16
R08T1Y24410,BTC080X29,2021-06-11
R08T1Y24413,BTC080X30,2021-06-15
R08T1Y24616,BTC080X44,2021-06-04
R08T1Y25111,BTC080X06,2021-06-07
R08T1Y25207,BTC080X13,2021-06-18
R08T1Y25214,BTC080X14,2021-06-14
R08T1Y25515,BTC080X32,2021-06-16
R08T1Y25519,BTC080X33,2021-06-13
R08T1Y26103,BTC080X02,2021-06-10
R08T1Y26318,BTC080X18,2021-06-06
R08T1Y26403,BTC080X19,2021-06-09
R08T1Y26510,BTC080X33,2021-06-13
R08T1Y26613,BTC080X44,2021-06-04
R08T2Y20110,BTC080X03,2021-06-06
R08T2Y20316,BTC080X19,2021-06-09
R08T2Y20502,BTC080X24,2021-06-07
R08T2Y20518,BTC080X29,2021-06-11
R08T2Y20605,BTC080X32,2021-06-16
R08T2Y21207,BTC080X12,2021-06-17
R08T2Y21215,BTC080X14,2021-06-14
R08T2Y21511,BTC080X36,2021-06-09
R08T2Y21519,BTC080X41,2021-06-11
R08T2Y22102,BTC080X01,2021-06-13
R08T2Y22111,BTC080X05,2021-06-16
R08T2Y22206,BTC080X06,2021-06-07
R08T2Y22400,BTC080X16,2021-06-03
R08T2Y22604,BTC080X30,2021-06-15
R08T2Y23112,BTC080X06,2021-06-07
R08T2Y23318,BTC080X17,2021-06-12
R08T2Y23618,BTC080X36,2021-06-09
R08T2Y24305,BTC080X22,2021-06-01
R08T2Y24417,BTC080X31,2021-06-09
R08T2Y24509,BTC080X36,2021-06-09
R08T2Y25103,BTC080X04,2021-06-03
R08T2Y25301,BTC080X18,2021-06-06
R08T2Y25317,BTC080X22,2021-06-01
R08T2Y25404,BTC080X23,2021-06-18
R08T2Y25410,BTC080X25,2021-06-13
R08T2Y25415,BTC080X27,2021-06-06
R08T2Y25614,BTC080X40,2021-06-19
R08T2Y26100,BTC080X01,2021-06-13
R08T2Y26115,BTC080X06,2021-06-07
R08T2Y26118,BTC080X07,2021-06-11
R08T2Y26204,BTC080X08,2021-06-13
R08T2Y26210,BTC080X09,2021-06-05
R08T2Y26405,BTC080X21,2021-06-16
R08T2Y26414,BTC080X24,2021-06-07
R08T3Y20114,BTC080X05,2021-06-16
R08T3Y20201,BTC080X06,2021-06-07
R08T3Y20209,BTC080X07,2021-06-11
R08T3Y20305,BTC080X15,2021-06-04
R08T3Y20306,BTC080X16,2021-06-03
R08T3Y20313,BTC080X18,2021-06-06
R08T3Y20610,BTC080X34,2021-06-09
R08T3Y20616,BTC080X39,2021-06-18
R08T3Y21100,BTC080X01,2021-06-13
R08T3Y21102,BTC080X02,2021-06-10
R08T3Y21114,BTC080X07,2021-06-11
R08T3Y21304,BTC080X17,2021-06-12
R08T3Y21316,BTC080X25,2021-06-13
R08T3Y21507,BTC080X34,2021-06-09
R08T3Y21512,BTC080X37,2021-06-07
R08T3Y22207,BTC080X07,2021-06-11
R08T3Y22309,BTC080X11,2021-06-09
R08T3Y22314,BTC080X12,2021-06-17
R08T3Y22416,BTC080X21,2021-06-16
R08T3Y22600,BTC080X28,2021-06-03
R08T3Y23116,BTC080X08,2021-06-13
R08T3Y23214,BTC080X11,2021-06-09
R08T3Y23317,BTC080X16,2021-06-03
R08T3Y23507,BTC080X24,2021-06-07
R08T3Y23510,BTC080X26,2021-06-16
R08T3Y23511,BTC080X27,2021-06-06
R08T3Y23516,BTC080X30,2021-06-15
R08T3Y24103,BTC080X02,2021-06-10
R08T3Y24115,BTC080X07,2021-06-11
R08T3Y24216,BTC080X17,2021-06-12
R08T3Y24218,BTC080X18,2021-06-06
R08T3Y24505,BTC080X35,2021-06-02
R08T3Y24516,BTC080X38,2021-06-02
R08T3Y24600,BTC080X40,2021-06-19
R08T3Y24603,BTC080X42,2021-06-05
R08T3Y24614,BTC080X43,2021-06-09
R08T3Y25115,BTC080X08,2021-06-13
R08T3Y25219,BTC080X17,2021-06-12
R08T3Y25306,BTC080X19,2021-06-09
R08T3Y25310,BTC080X20,2021-06-13
R08T3Y25500,BTC080X28,2021-06-03
R08T3Y25604,BTC080X35,2021-06-02
R08T3Y26114,BTC080X05,2021-06-16
R08T3Y26312,BTC080X14,2021-06-14
R08T3Y26601,BTC080X38,2021-06-02
R08T3Y26609,BTC080X42,2021-06-05
R08T4Y20302,BTC080X13,2021-06-18
R08T4Y20403,BTC080X22,2021-06-01
R08T4Y20503,BTC080X25,2021-06-13
R08T4Y20508,BTC080X27,2021-06-06
R08T4Y20510,BTC080X28,2021-06-03
R08T4Y20609,BTC080X33,2021-06-13
R08T4Y20611,BTC080X35,2021-06-02
R08T4Y21112,BTC080X06,2021-06-07
R08T4Y21115,BTC080X08,2021-06-13
R08T4Y21311,BTC080X21,2021-06-16
R08T4Y21314,BTC080X23,2021-06-18
R08T4Y21605,BTC080X43,2021-06-09
R08T4Y22106,BTC080X02,2021-06-10
R08T4Y22109,BTC080X04,2021-06-03
R08T4Y22306,BTC080X10,2021-06-02
R08T4Y22501,BTC080X24,2021-06-07
R08T4Y22519,BTC080X27,2021-06-06
R08T4Y23208,BTC080X09,2021-06-05
R08T4Y23502,BTC080X23,2021-06-18
R08T4Y24102,BTC080X01,2021-06-13
R08T4Y24111,BTC080X06,2021-06-07
R08T4Y24312,BTC080X24,2021-06-07
R08T4Y24504,BTC080X34,2021-06-09
R08T4Y25114,BTC080X07,2021-06-11
R08T4Y26307,BTC080X13,2021-06-18
R08T4Y26313,BTC080X15,2021-06-04
R08T4Y26409,BTC080X22,2021-06-01
R08T4Y26505,BTC080X30,2021-06-15
R08T4Y26605,BTC080X40,2021-06-19
R08T5Y20214,BTC080X11,2021-06-09
R08T5Y20218,BTC080X12,2021-06-17
R08T5Y20405,BTC080X23,2021-06-18
R08T5Y20614,BTC080X37,2021-06-07
R08T5Y21117,BTC080X10,2021-06-02
R08T5Y21213,BTC080X13,2021-06-18
R08T5Y21308,BTC080X18,2021-06-06
R08T5Y21407,BTC080X29,2021-06-11
R08T5Y22107,BTC080X03,2021-06-06
R08T5Y23304,BTC080X13,2021-06-18
R08T5Y23313,BTC080X15,2021-06-04
R08T5Y23407,BTC080X18,2021-06-06
R08T5Y23413,BTC080X21,2021-06-16
R08T5Y23419,BTC080X22,2021-06-01
R08T5Y23604,BTC080X33,2021-06-13
R08T5Y24203,BTC080X13,2021-06-18
R08T5Y24301,BTC080X20,2021-06-13
R08T5Y24409,BTC080X28,2021-06-03
R08T5Y24515,BTC080X37,2021-06-07
R08T5Y24619,BTC080X46,2021-06-14
R08T5Y25108,BTC080X05,2021-06-16
R08T5Y25118,BTC080X09,2021-06-05
R08T5Y25204,BTC080X11,2021-06-09
R08T5Y25218,BTC080X16,2021-06-03
R08T5Y25405,BTC080X24,2021-06-07
R08T5Y25504,BTC080X29,2021-06-11
R08T5Y25505,BTC080X30,2021-06-15
R08T5Y26108,BTC080X03,2021-06-06
R08T5Y26317,BTC080X17,2021-06-12
R08T5Y26511,BTC080X34,2021-06-09
R08T5Y26514,BTC080X35,2021-06-02
R08T5Y26604,BTC080X39,2021-06-18
R08T5Y26611,BTC080X43,2021-06-09
R08T6Y20105,BTC080X02,2021-06-10
R08T6Y20213,BTC080X10,2021-06-02
R08T6Y20319,BTC080X20,2021-06-13
R08T6Y20612,BTC080X36,2021-06-09
R08T6Y20615,BTC080X38,2021-06-02
R08T6Y21200,BTC080X11,2021-06-09
R08T6Y21309,BTC080X19,2021-06-09
R08T6Y21413,BTC080X30,2021-06-15
R08T6Y21416,BTC080X31,2021-06-09
R08T6Y21417,BTC080X32,2021-06-16
R08T6Y21510,BTC080X35,2021-06-02
R08T6Y21513,BTC080X38,2021-06-02
R08T6Y21515,BTC080X40,2021-06-19
R08T6Y22211,BTC080X09,2021-06-05
R08T6Y22318,BTC080X15,2021-06-04
R08T6Y22401,BTC080X17,2021-06-12
R08T6Y22418,BTC080X22,2021-06-01
R08T6Y22518,BTC080X26,2021-06-16
R08T6Y22607,BTC080X31,2021-06-09
R08T6Y23100,BTC080X01,2021-06-13
R08T6Y23108,BTC080X03,2021-06-06
R08T6Y23109,BTC080X04,2021-06-03
R08T6Y23412,BTC080X20,2021-06-13
R08T6Y23515,BTC080X29,2021-06-11
R08T6Y23518,BTC080X31,2021-06-09
R08T6Y23617,BTC080X35,2021-06-02
R08T6Y24106,BTC080X04,2021-06-03
R08T6Y24202,BTC080X12,2021-06-17
R08T6Y24310,BTC080X23,2021-06-18
R08T6Y24400,BTC080X26,2021-06-16
R08T6Y24501,BTC080X32,2021-06-16
R08T6Y24602,BTC080X41,2021-06-11
R08T6Y24617,BTC080X45,2021-06-04
R08T6Y25102,BTC080X03,2021-06-06
R08T6Y25411,BTC080X26,2021-06-16
R08T6Y25606,BTC080X36,2021-06-09
R08T6Y25619,BTC080X41,2021-06-11
R08T6Y26112,BTC080X04,2021-06-03
R08T6Y26303,BTC080X12,2021-06-17
R08T6Y26418,BTC080X25,2021-06-13
R08T6Y26503,BTC080X28,2021-06-03
R08T6Y26506,BTC080X31,2021-06-09
R08T6Y26515,BTC080X36,2021-06-09
R08T6Y26618,BTC080X45,2021-06-04
R08T7Y20210,BTC080X08,2021-06-13
R08T7Y20402,BTC080X21,2021-06-16
R08T7Y20604,BTC080X31,2021-06-09
R08T7Y21104,BTC080X03,2021-06-06
R08T7Y21106,BTC080X04,2021-06-03
R08T7Y21218,BTC080X15,2021-06-04
R08T7Y21301,BTC080X16,2021-06-03
R08T7Y21310,BTC080X20,2021-06-13
R08T7Y21312,BTC080X22,2021-06-01
R08T7Y21500,BTC080X33,2021-06-13
R08T7Y21606,BTC080X44,2021-06-04
R08T7Y22210,BTC080X08,2021-06-13
R08T7Y22500,BTC080X23,2021-06-18
R08T7Y22602,BTC080X29,2021-06-11
R08T7Y22616,BTC080X34,2021-06-09
R08T7Y23101,BTC080X02,2021-06-10
R08T7Y23115,BTC080X07,2021-06-11
R08T7Y23209,BTC080X10,2021-06-02
R08T7Y23219,BTC080X12,2021-06-17
R08T7Y23508,BTC080X25,2021-06-13
R08T7Y23612,BTC080X34,2021-06-09
R08T7Y24116,BTC080X08,2021-06-13
R08T7Y24119,BTC080X10,2021-06-02
R08T7Y24206,BTC080X15,2021-06-04
R08T7Y24300,BTC080X19,2021-06-09
R08T7Y25101,BTC080X02,2021-06-10
R08T7Y25216,BTC080X15,2021-06-04
R08T7Y25601,BTC080X34,2021-06-09
R08T7Y25608,BTC080X37,2021-06-07
R08T7Y26419,BTC080X26,2021-06-16
R08T7Y26504,BTC080X29,2021-06-11
R08T7Y26507,BTC080X32,2021-06-16
R08T7Y26518,BTC080X37,2021-06-07
R08T7Y26606,BTC080X41,2021-06-11
R09T0Y20114,BTC090X05,2021-06-08
R09T0Y20603,BTC090X40,2021-06-11
R09T0Y21105,BTC090X03,2021-06-15
R09T0Y21203,BTC090X11,2021-06-13
R09T0Y21206,BTC090X12,2021-06-19
R09T0Y21305,BTC090X21,2021-06-10
R09T0Y21403,BTC090X26,2021-06-13
R09T0Y21612,BTC090X41,2021-06-07
R09T0Y22214,BTC090X12,2021-06-19
R09T0Y22219,BTC090X13,2021-06-01
R09T0Y22306,BTC090X14,2021-06-07
R09T0Y22310,BTC090X16,2021-06-13
R09T0Y22505,BTC090X28,2021-06-08
R09T0Y22508,BTC090X29,2021-06-11
R09T0Y22612,BTC090X43,2021-06-15
R09T0Y23100,BTC090X01,2021-06-09
R09T0Y23103,BTC090X03,2021-06-15
R09T0Y23214,BTC090X13,2021-06-01
R09T0Y23312,BTC090X23,2021-06-13
R09T0Y23601,BTC090X40,2021-06-11
R09T0Y23615,BTC090X45,2021-06-06
R09T0Y24117,BTC090X07,2021-06-01
R09T0Y24416,BTC090X27,2021-06-14
R09T0Y24517,BTC090X32,2021-06-05
R09T0Y25110,BTC090X02,2021-06-07
R09T0Y25206,BTC090X08,2021-06-09
R09T0Y25207,BTC090X09,2021-06-02
R09T0Y25214,BTC090X11,2021-06-13
R09T0Y25508,BTC090X24,2021-06-04
R09T0Y25519,BTC090X30,2021-06-14
R09T0Y25607,BTC090X35,2021-06-13
R09T0Y25619,BTC090X37,2021-06-04
R09T0Y26113,BTC090X06,2021-06-09
R09T0Y26405,BTC090X25,2021-06-15
R09T0Y26506,BTC090X32,2021-06-05
R09T0Y26512,BTC090X34,2021-06-02
R09T1Y20213,BTC090X11,2021-06-13
R09T1Y20414,BTC090X21,2021-06-10
R09T1Y20418,BTC090X24,2021-06-04
R09T1Y20513,BTC090X32,2021-06-05
R09T1Y20517,BTC090X36,2021-06-10
R09T1Y20601,BTC090X38,2021-06-08
R09T1Y20610,BTC090X42,2021-06-07
R09T1Y21119,BTC090X08,2021-06-09
R09T1Y21218,BTC090X18,2021-06-17
R09T1Y21300,BTC090X19,2021-06-18
R09T1Y21401,BTC090X25,2021-06-15
R09T1Y21414,BTC090X27,2021-06-14
R09T1Y21517,BTC090X36,2021-06-10
R09T1Y21613,BTC090X42,2021-06-07
R09T1Y21614,BTC090X43,2021-06-15
R09T1Y22210,BTC090X11,2021-06-13
R09T1Y22501,BTC090X26,2021-06-13
R09T1Y22509,BTC090X30,2021-06-14
R09T1Y22511,BTC090X31,2021-06-12
R09T1Y22604,BTC090X37,2021-06-04
R09T1Y22605,BTC090X38,2021-06-08
R09T1Y23107,BTC090X04,2021-06-07
R09T1Y23117,BTC090X09,2021-06-02
R09T1Y23200,BTC090X10,2021-06-17
R09T1Y23213,BTC090X12,2021-06-19
R09T1Y23305,BTC090X19,2021-06-18
R09T1Y23416,BTC090X33,2021-06-03
R09T1Y23517,BTC090X37,2021-06-04
R09T1Y23519,BTC090X38,2021-06-08
R09T1Y23600,BTC090X39,2021-06-17
R09T1Y23618,BTC090X46,2021-06-14
R09T1Y24106,BTC090X03,2021-06-15
R09T1Y24308,BTC090X15,2021-06-11
R09T1Y24515,BTC090X31,2021-06-12
R09T1Y24604,BTC090X34,2021-06-02
R09T1Y24609,BTC090X37,2021-06-04
R09T1Y24611,BTC090X38,2021-06-08
R09T1Y24618,BTC090X40,2021-06-11
R09T1Y25318,BTC090X16,2021-06-13
R09T1Y25419,BTC090X21,2021-06-10
R09T1Y25511,BTC090X27,2021-06-14
R09T1Y25512,BTC090X28,2021-06-08
R09T1Y26200,BTC090X10,2021-06-17
R09T1Y26312,BTC090X24,2021-06-04
R09T1Y26501,BTC090X31,2021-06-12
R09T1Y26615,BTC090X40,2021-06-11
R09T2Y20104,BTC090X02,2021-06-07
R09T2Y20201,BTC090X08,2021-06-09
R09T2Y20207,BTC090X09,2021-06-02
R09T2Y20215,BTC090X12,2021-06-19
R09T2Y20308,BTC090X16,2021-06-13
R09T2Y20405,BTC090X18,2021-06-17
R09T2Y20503,BTC090X27,2021-06-14
R09T2Y21216,BTC090X16,2021-06-13
R09T2Y21301,BTC090X20,2021-06-05
R09T2Y21505,BTC090X30,2021-06-14
R09T2Y21600,BTC090X37,2021-06-04
R09T2Y22313,BTC090X17,2021-06-16
R09T2Y22404,BTC090X20,2021-06-05
R09T2Y22415,BTC090X25,2021-06-15
R09T2Y22512,BTC090X32,2021-06-05
R09T2Y22519,BTC090X35,2021-06-13
R09T2Y22611,BTC090X42,2021-06-07
R09T2Y23206,BTC090X11,2021-06-13
R09T2Y23304,BTC090X18,2021-06-17
R09T2Y23516,BTC090X36,2021-06-10
R09T2Y24211,BTC090X13,2021-06-01
R09T2Y24315,BTC090X19,2021-06-18
R09T2Y25106,BTC090X01,2021-06-09
R09T2Y25111,BTC090X03,2021-06-15
R09T2Y25411,BTC090X18,2021-06-17
R09T2Y25509,BTC090X25,2021-06-15
R09T2Y25602,BTC090X32,2021-06-05
R09T2Y25604,BTC090X33,2021-06-03
R09T2Y25605,BTC090X34,2021-06-02
R09T2Y25616,BTC090X36,2021-06-10
R09T2Y26109,BTC090X05,2021-06-08
R09T2Y26406,BTC090X26,2021-06-13
R09T2Y26516,BTC090X36,2021-06-10
R09T3Y20117,BTC090X06,2021-06-09
R09T3Y20118,BTC090X07,2021-06-01
R09T3Y20406,BTC090X19,2021-06-18
R09T3Y20617,BTC090X44,2021-06-05
R09T3Y21118,BTC090X07,2021-06-01
R09T3Y21200,BTC090X09,2021-06-02
R09T3Y21201,BTC090X10,2021-06-17
R09T3Y21209,BTC090X14,2021-06-07
R09T3Y21510,BTC090X32,2021-06-05
R09T3Y21514,BTC090X34,2021-06-02
R09T3Y21601,BTC090X38,2021-06-08
R09T3Y21610,BTC090X40,2021-06-11
R09T3Y22113,BTC090X04,2021-06-07
R09T3Y22202,BTC090X08,2021-06-09
R09T3Y22205,BTC090X10,2021-06-17
R09T3Y22317,BTC090X18,2021-06-17
R09T3Y22412,BTC090X22,2021-06-10
R09T3Y22504,BTC090X27,2021-06-14
R09T3Y22513,BTC090X33,2021-06-03
R09T3Y22603,BTC090X36,2021-06-10
R09T3Y23218,BTC090X15,2021-06-11
R09T3Y23301,BTC090X17,2021-06-16
R09T3Y23406,BTC090X27,2021-06-14
R09T3Y23409,BTC090X30,2021-06-14
R09T3Y23605,BTC090X42,2021-06-07
R09T3Y24412,BTC090X24,2021-06-04
R09T3Y24417,BTC090X28,2021-06-08
R09T3Y24518,BTC090X33,2021-06-03
R09T3Y24615,BTC090X39,2021-06-17
R09T3Y25114,BTC090X05,2021-06-08
R09T3Y25414,BTC090X19,2021-06-18
R09T3Y25510,BTC090X26,2021-06-13
R09T3Y26101,BTC090X01,2021-06-09
R09T3Y26107,BTC090X04,2021-06-07
R09T3Y26209,BTC090X14,2021-06-07
R09T3Y26215,BTC090X16,2021-06-13
R09T3Y26303,BTC090X18,2021-06-17
R09T3Y26510,BTC090X33,2021-06-03
R09T3Y26614,BTC090X39,2021-06-17
R09T4Y20300,BTC090X14,2021-06-07
R09T4Y20510,BTC090X31,2021-06-12
R09T4Y20518,BTC090X37,2021-06-04
R09T4Y21104,BTC090X02,2021-06-07
R09T4Y21507,BTC090X31,2021-06-12
R09T4Y21602,BTC090X39,2021-06-17
R09T4Y22112,BTC090X03,2021-06-15
R09T4Y22618,BTC090X44,2021-06-05
R09T4Y23115,BTC090X07,2021-06-01
R09T4Y23116,BTC090X08,2021-06-09
R09T4Y23319,BTC090X25,2021-06-15
R09T4Y23407,BTC090X28,2021-06-08
R09T4Y23413,BTC090X31,2021-06-12
R09T4Y23414,BTC090X32,2021-06-05
R09T4Y23614,BTC090X44,2021-06-05
R09T4Y24110,BTC090X05,2021-06-08
R09T4Y24201,BTC090X08,2021-06-09
R09T4Y24207,BTC090X11,2021-06-13
R09T4Y24309,BTC090X16,2021-06-13
R09T4Y25209,BTC090X10,2021-06-17
R09T4Y25314,BTC090X13,2021-06-01
R09T4Y25315,BTC090X14,2021-06-07
R09T4Y25500,BTC090X22,2021-06-10
R09T4Y26203,BTC090X11,2021-06-13
R09T4Y26205,BTC090X13,2021-06-01
R09T4Y26210,BTC090X15,2021-06-11
R09T4Y26305,BTC090X19,2021-06-18
R09T4Y26311,BTC090X23,2021-06-13
R09T5Y20107,BTC090X03,2021-06-15
R09T5Y20400,BTC090X17,2021-06-16
R09T5Y20417,BTC090X23,2021-06-13
R09T5Y20419,BTC090X25,2021-06-15
R09T5Y20502,BTC090X26,2021-06-13
R09T5Y20507,BTC090X29,2021-06-11
R09T5Y20609,BTC090X41,2021-06-07
R09T5Y21114,BTC090X05,2021-06-08
R09T5Y21210,BTC090X15,2021-06-11
R09T5Y21217,BTC090X17,2021-06-16
R09T5Y21503,BTC090X28,2021-06-08
R09T5Y21513,BTC090X33,2021-06-03
R09T5Y21619,BTC090X44,2021-06-05
R09T5Y22115,BTC090X05,2021-06-08
R09T5Y22116,BTC090X06,2021-06-09
R09T5Y22319,BTC090X19,2021-06-18
R09T5Y22608,BTC090X40,2021-06-11
R09T5Y22610,BTC090X41,2021-06-07
R09T5Y23108,BTC090X05,2021-06-08
R09T5Y23110,BTC090X06,2021-06-09
R09T5Y23217,BTC090X14,2021-06-07
R09T5Y23311,BTC090X22,2021-06-10
R09T5Y23619,BTC090X47,2021-06-19
R09T5Y24102,BTC090X01,2021-06-09
R09T5Y24107,BTC090X04,2021-06-07
R09T5Y24210,BTC090X12,2021-06-19
R09T5Y24317,BTC090X20,2021-06-05
R09T5Y24318,BTC090X21,2021-06-10
R09T5Y24413,BTC090X25,2021-06-15
R09T5Y24414,BTC090X26,2021-06-13
R09T5Y24605,BTC090X35,2021-06-13
R09T5Y24607,BTC090X36,2021-06-10
R09T5Y25201,BTC090X07,2021-06-01
R09T5Y25517,BTC090X29,2021-06-11
R09T5Y25600,BTC090X31,2021-06-12
R09T5Y26103,BTC090X02,2021-06-07
R09T5Y26306,BTC090X20,2021-06-05
R09T5Y26409,BTC090X27,2021-06-14
R09T5Y26411,BTC090X28,2021-06-08
R09T5Y26413,BTC090X30,2021-06-14
R09T6Y20108,BTC090X04,2021-06-07
R09T6Y20209,BTC090X10,2021-06-17
R09T6Y20412,BTC090X20,2021-06-05
R09T6Y20415,BTC090X22,2021-06-10
R09T6Y20516,BTC090X35,2021-06-13
R09T6Y20602,BTC090X39,2021-06-17
R09T6Y20618,BTC090X45,2021-06-06
R09T6Y21109,BTC090X04,2021-06-07
R09T6Y21317,BTC090X24,2021-06-04
R09T6Y21515,BTC090X35,2021-06-13
R09T6Y22103,BTC090X01,2021-06-09
R09T6Y22309,BTC090X15,2021-06-11
R09T6Y22606,BTC090X39,2021-06-17
R09T6Y23101,BTC090X02,2021-06-07
R09T6Y23219,BTC090X16,2021-06-13
R09T6Y23306,BTC090X20,2021-06-05
R09T6Y23402,BTC090X26,2021-06-13
R09T6Y23506,BTC090X34,2021-06-02
R09T6Y23513,BTC090X35,2021-06-13
R09T6Y23603,BTC090X41,2021-06-07
R09T6Y24104,BTC090X02,2021-06-07
R09T6Y24203,BTC090X09,2021-06-02
R09T6Y24205,BTC090X10,2021-06-17
R09T6Y24313,BTC090X18,2021-06-17
R09T6Y24406,BTC090X22,2021-06-10
R09T6Y24408,BTC090X23,2021-06-13
R09T6Y24418,BTC090X29,2021-06-11
R09T6Y25316,BTC090X15,2021-06-11
R09T6Y26106,BTC090X03,2021-06-15
R09T6Y26117,BTC090X08,2021-06-09
R09T6Y26412,BTC090X29,2021-06-11
R09T6Y26519,BTC090X37,2021-06-04
R09T6Y26606,BTC090X38,2021-06-08
R09T7Y20101,BTC090X01,2021-06-09
R09T7Y20216,BTC090X13,2021-06-01
R09T7Y20307,BTC090X15,2021-06-11
R09T7Y20506,BTC090X28,2021-06-08
R09T7Y20508,BTC090X30,2021-06-14
R09T7Y20514,BTC090X33,2021-06-03
R09T7Y20515,BTC090X34,2021-06-02
R09T7Y20613,BTC090X43,2021-06-15
R09T7Y21100,BTC090X01,2021-06-09
R09T7Y21116,BTC090X06,2021-06-09
R09T7Y21207,BTC090X13,2021-06-01
R09T7Y21312,BTC090X22,2021-06-10
R09T7Y21313,BTC090X23,2021-06-13
R09T7Y21504,BTC090X29,2021-06-11
R09T7Y22109,BTC090X02,2021-06-07
R09T7Y22200,BTC090X07,2021-06-01
R09T7Y22203,BTC090X09,2021-06-02
R09T7Y22406,BTC090X21,2021-06-10
R09T7Y22413,BTC090X23,2021-06-13
R09T7Y22414,BTC090X24,2021-06-04
R09T7Y22515,BTC090X34,2021-06-02
R09T7Y23307,BTC090X21,2021-06-10
R09T7Y23317,BTC090X24,2021-06-04
R09T7Y23408,BTC090X29,2021-06-11
R09T7Y23609,BTC090X43,2021-06-15
R09T7Y24112,BTC090X06,2021-06-09
R09T7Y24307,BTC090X14,2021-06-07
R09T7Y24312,BTC090X17,2021-06-16
R09T7Y24506,BTC090X30,2021-06-14
R09T7Y25113,BTC090X04,2021-06-07
R09T7Y25118,BTC090X06,2021-06-09
R09T7Y25300,BTC090X12,2021-06-19
R09T7Y25402,BTC090X17,2021-06-16
R09T7Y25416,BTC090X20,2021-06-05
R09T7Y25505,BTC090X23,2021-06-13
R09T7Y26114,BTC090X07,2021-06-01
R09T7Y26118,BTC090X09,2021-06-02
R09T7Y26204,BTC090X12,2021-06-19
R09T7Y26219,BTC090X17,2021-06-16
R09T7Y26307,BTC090X21,2021-06-10
R09T7Y26308,BTC090X22,2021-06-10
R09T7Y26515,BTC090X35,2021-06-13
R10T0Y20202,BTC100X06,2021-06-13
R10T0Y20203,BTC100X07,2021-06-04
R10T0Y20305,BTC100X17,2021-06-17
R10T0Y20317,BTC100X21,2021-06-08
R10T0Y20405,BTC100X26,2021-06-01
R10T0Y20407,BTC100X27,2021-06-10
R10T0Y20605,BTC100X39,2021-06-11
R10T0Y21110,BTC100X04,2021-06-04
R10T0Y21417,BTC100X22,2021-06-10
R10T0Y21510,BTC100X27,2021-06-10
R10T0Y21605,BTC100X34,2021-06-16
R10T0Y21617,BTC100X38,2021-06-08
R10T0Y22111,BTC100X06,2021-06-13
R10T0Y22115,BTC100X07,2021-06-04
R10T0Y22316,BTC100X20,2021-06-13
R10T0Y22503,BTC100X26,2021-06-01
R10T0Y22517,BTC100X30,2021-06-02
R10T0Y22603,BTC100X33,2021-06-15
R10T0Y23117,BTC100X09,2021-06-01
R10T0Y23219,BTC100X15,2021-06-17
R10T0Y23308,BTC100X22,2021-06-10
R10T0Y23404,BTC100X28,2021-06-11
R10T0Y23408,BTC100X29,2021-06-16
R10T0Y23411,BTC100X30,2021-06-02
R10T0Y23602,BTC100X41,2021-06-08
R10T0Y23614,BTC100X44,2021-06-14
R10T0Y24207,BTC100X09,2021-06-01
R10T0Y24215,BTC100X10,2021-06-17
R10T0Y24606,BTC100X32,2021-06-08
R10T0Y25207,BTC100X10,2021-06-17
R10T0Y25310,BTC100X17,2021-06-17
R10T0Y25608,BTC100X37,2021-06-02
R10T0Y25615,BTC100X39,2021-06-11
R10T0Y26116,BTC100X07,2021-06-04
R10T0Y26401,BTC100X14,2021-06-11
R10T0Y26405,BTC100X16,2021-06-15
R10T0Y26508,BTC100X23,2021-06-13
R10T1Y20103,BTC100X01,2021-06-19
R10T1Y20108,BTC100X03,2021-06-16
R10T1Y20213,BTC100X11,2021-06-09
R10T1Y20214,BTC100X12,2021-06-17
R10T1Y20219,BTC100X13,2021-06-09
R10T1Y20400,BTC100X23,2021-06-13
R10T1Y21101,BTC100X02,2021-06-06
R10T1Y21111,BTC100X05,2021-06-13
R10T1Y21307,BTC100X14,2021-06-11
R10T1Y21604,BTC100X33,2021-06-15
R10T1Y21613,BTC100X36,2021-06-03
R10T1Y22215,BTC100X15,2021-06-17
R10T1Y22300,BTC100X16,2021-06-15
R10T1Y22504,BTC100X27,2021-06-10
R10T1Y23106,BTC100X03,2021-06-16
R10T1Y23118,BTC100X10,2021-06-17
R10T1Y23302,BTC100X18,2021-06-08
R10T1Y23402,BTC100X27,2021-06-10
R10T1Y23509,BTC100X36,2021-06-03
R10T1Y23601,BTC100X40,2021-06-11
R10T1Y24101,BTC100X01,2021-06-19
R10T1Y24108,BTC100X02,2021-06-06
R10T1Y24202,BTC100X06,2021-06-13
R10T1Y24306,BTC100X13,2021-06-09
R10T1Y24510,BTC100X27,2021-06-10
R10T1Y24611,BTC100X35,2021-06-03
R10T1Y24618,BTC100X36,2021-06-03
R10T1Y25114,BTC100X04,2021-06-04
R10T1Y25302,BTC100X13,2021-06-09
R10T1Y25409,BTC100X23,2021-06-13
R10T1Y25501,BTC100X29,2021-06-16
R10T1Y25607,BTC100X36,2021-06-03
R10T1Y26100,BTC100X01,2021-06-19
R10T1Y26111,BTC100X04,2021-06-04
R10T1Y26511,BTC100X25,2021-06-04
R10T1Y26611,BTC100X32,2021-06-08
R10T2Y20303,BTC100X16,2021-06-15
R10T2Y20312,BTC100X20,2021-06-13
R10T2Y20318,BTC100X22,2021-06-10
R10T2Y20606,BTC100X40,2021-06-11
R10T2Y21115,BTC100X07,2021-06-04
R10T2Y21305,BTC100X13,2021-06-09
R10T2Y21310,BTC100X15,2021-06-17
R10T2Y21400,BTC100X18,2021-06-08
R10T2Y21518,BTC100X31,2021-06-16
R10T2Y22505,BTC100X28,2021-06-11
R10T2Y22508,BTC100X29,2021-06-16
R10T2Y23105,BTC100X02,2021-06-06
R10T2Y23212,BTC100X13,2021-06-09
R10T2Y23306,BTC100X21,2021-06-08
R10T2Y23516,BTC100X37,2021-06-02
R10T2Y23603,BTC100X42,2021-06-15
R10T2Y24110,BTC100X03,2021-06-16
R10T2Y24217,BTC100X11,2021-06-09
R10T2Y24610,BTC100X34,2021-06-16
R10T2Y25201,BTC100X07,2021-06-04
R10T2Y25410,BTC100X24,2021-06-05
R10T2Y25510,BTC100X31,2021-06-16
R10T2Y26112,BTC100X05,2021-06-13
R10T2Y26318,BTC100X13,2021-06-09
R10T2Y26416,BTC100X18,2021-06-08
R10T2Y26501,BTC100X20,2021-06-13
R10T2Y26517,BTC100X26,2021-06-01
R10T2Y26604,BTC100X29,2021-06-16
R10T3Y20111,BTC100X04,2021-06-04
R10T3Y20415,BTC100X29,2021-06-16
R10T3Y21100,BTC100X01,2021-06-19
R10T3Y21211,BTC100X11,2021-06-09
R10T3Y21418,BTC100X23,2021-06-13
R10T3Y21419,BTC100X24,2021-06-05
R10T3Y21609,BTC100X35,2021-06-03
R10T3Y22107,BTC100X05,2021-06-13
R10T3Y22204,BTC100X10,2021-06-17
R10T3Y22207,BTC100X11,2021-06-09
R10T3Y22209,BTC100X13,2021-06-09
R10T3Y22407,BTC100X23,2021-06-13
R10T3Y22607,BTC100X34,2021-06-16
R10T3Y23109,BTC100X05,2021-06-13
R10T3Y23110,BTC100X06,2021-06-13
R10T3Y23300,BTC100X16,2021-06-15
R10T3Y23301,BTC100X17,2021-06-17
R10T3Y23311,BTC100X23,2021-06-13
R10T3Y23318,BTC100X26,2021-06-01
R10T3Y23616,BTC100X45,2021-06-15
R10T3Y24206,BTC100X08,2021-06-01
R10T3Y24309,BTC100X14,2021-06-11
R10T3Y24313,BTC100X16,2021-06-15
R10T3Y24314,BTC100X17,2021-06-17
R10T3Y24504,BTC100X25,2021-06-04
R10T3Y24512,BTC100X28,2021-06-11
R10T3Y24609,BTC100X33,2021-06-15
R10T3Y25100,BTC100X01,2021-06-19
R10T3Y25308,BTC100X15,2021-06-17
R10T3Y25309,BTC100X16,2021-06-15
R10T3Y25404,BTC100X21,2021-06-08
R10T3Y25411,BTC100X25,2021-06-04
R10T3Y26102,BTC100X02,2021-06-06
R10T3Y26115,BTC100X06,2021-06-13
R10T3Y26211,BTC100X09,2021-06-01
R10T3Y26418,BTC100X19,2021-06-08
R10T4Y20205,BTC100X09,2021-06-01
R10T4Y20300,BTC100X14,2021-06-11
R10T4Y20308,BTC100X18,2021-06-08
R10T4Y20516,BTC100X35,2021-06-03
R10T4Y20602,BTC100X38,2021-06-08
R10T4Y21113,BTC100X06,2021-06-13
R10T4Y21201,BTC100X09,2021-06-01
R10T4Y21313,BTC100X16,2021-06-15
R10T4Y21318,BTC100X17,2021-06-17
R10T4Y21508,BTC100X25,2021-06-04
R10T4Y21600,BTC100X32,2021-06-08
R10T4Y22105,BTC100X03,2021-06-16
R10T4Y22119,BTC100X08,2021-06-01
R10T4Y22201,BTC100X09,2021-06-01
R10T4Y22302,BTC100X17,2021-06-17
R10T4Y22310,BTC100X19,2021-06-08
R10T4Y22600,BTC100X32,2021-06-08
R10T4Y23116,BTC100X08,2021-06-01
R10T4Y23304,BTC100X19,2021-06-08
R10T4Y23418,BTC100X33,2021-06-15
R10T4Y23518,BTC100X38,2021-06-08
R10T4Y23519,BTC100X39,2021-06-11
R10T4Y23618,BTC100X46,2021-06-12
R10T4Y24118,BTC100X05,2021-06-13
R10T4Y24316,BTC100X19,2021-06-08
R10T4Y24412,BTC100X24,2021-06-05
R10T4Y24601,BTC100X29,2021-06-16
R10T4Y25115,BTC100X05,2021-06-13
R10T4Y25202,BTC100X08,2021-06-01
R10T4Y25500,BTC100X28,2021-06-11
R10T4Y25602,BTC100X34,2021-06-16
R10T4Y25610,BTC100X38,2021-06-08
R10T4Y25619,BTC100X40,2021-06-11
R10T4Y26213,BTC100X10,2021-06-17
R10T4Y26218,BTC100X11,2021-06-09
R10T4Y26503,BTC100X21,2021-06-08
R10T4Y26505,BTC100X22,2021-06-10
R10T4Y26509,BTC100X24,2021-06-05
R10T4Y26619,BTC100X35,2021-06-03
R10T5Y20104,BTC100X02,2021-06-06
R10T5Y20301,BTC100X15,2021-06-17
R10T5Y20508,BTC100X33,2021-06-15
R10T5Y20610,BTC100X41,2021-06-08
R10T5Y20616,BTC100X43,2021-06-19
R10T5Y20618,BTC100X45,2021-06-15
R10T5Y21210,BTC100X10,2021-06-17
R10T5Y21401,BTC100X19,2021-06-08
R10T5Y21416,BTC100X21,2021-06-08
R10T5Y21514,BTC100X29,2021-06-16
R10T5Y22102,BTC100X01,2021-06-19
R10T5Y22106,BTC100X04,2021-06-04
R10T5Y22403,BTC100X22,2021-06-10
R10T5Y22518,BTC100X31,2021-06-16
R10T5Y22610,BTC100X35,2021-06-03
R10T5Y23111,BTC100X07,2021-06-04
R10T5Y23203,BTC100X11,2021-06-09
R10T5Y23316,BTC100X25,2021-06-04
R10T5Y23502,BTC100X35,2021-06-03
R10T5Y24305,BTC100X12,2021-06-17
R10T5Y24402,BTC100X22,2021-06-10
R10T5Y24404,BTC100X23,2021-06-13
R10T5Y25105,BTC100X02,2021-06-06
R10T5Y25205,BTC100X09,2021-06-01
R10T5Y25215,BTC100X12,2021-06-17
R10T5Y25316,BTC100X19,2021-06-08
R10T5Y25401,BTC100X20,2021-06-13
R10T5Y25406,BTC100X22,2021-06-10
R10T5Y25414,BTC100X26,2021-06-01
R10T5Y25416,BTC100X27,2021-06-10
R10T5Y25515,BTC100X32,2021-06-08
R10T5Y26606,BTC100X30,2021-06-02
R10T6Y20114,BTC100X05,2021-06-13
R10T6Y20204,BTC100X08,2021-06-01
R10T6Y20212,BTC100X10,2021-06-17
R10T6Y20309,BTC100X19,2021-06-08
R10T6Y20402,BTC100X24,2021-06-05
R10T6Y20414,BTC100X28,2021-06-11
R10T6Y20416,BTC100X30,2021-06-02
R10T6Y20506,BTC100X32,2021-06-08
R10T6Y20513,BTC100X34,2021-06-16
R10T6Y20600,BTC100X37,2021-06-02
R10T6Y20612,BTC100X42,2021-06-15
R10T6Y21118,BTC100X08,2021-06-01
R10T6Y21509,BTC100X26,2021-06-01
R10T6Y21515,BTC100X30,2021-06-02
R10T6Y22307,BTC100X18,2021-06-08
R10T6Y22318,BTC100X21,2021-06-08
R10T6Y22416,BTC100X24,2021-06-05
R10T6Y23101,BTC100X01,2021-06-19
R10T6Y23108,BTC100X04,2021-06-04
R10T6Y23204,BTC100X12,2021-06-17
R10T6Y23217,BTC100X14,2021-06-11
R10T6Y23305,BTC100X20,2021-06-13
R10T6Y23417,BTC100X32,2021-06-08
R10T6Y23501,BTC100X34,2021-06-16
R10T6Y23606,BTC100X43,2021-06-19
R10T6Y24115,BTC100X04,2021-06-04
R10T6Y24204,BTC100X07,2021-06-04
R10T6Y24311,BTC100X15,2021-06-17
R10T6Y24315,BTC100X18,2021-06-08
R10T6Y24318,BTC100X20,2021-06-13
R10T6Y24509,BTC100X26,2021-06-01
R10T6Y24602,BTC100X30,2021-06-02
R10T6Y25315,BTC100X18,2021-06-08
R10T6Y25519,BTC100X33,2021-06-15
R10T6Y25603,BTC100X35,2021-06-03
R10T6Y26118,BTC100X08,2021-06-01
R10T6Y26305,BTC100X12,2021-06-17
R10T6Y26402,BTC100X15,2021-06-17
R10T6Y26412,BTC100X17,2021-06-17
R10T6Y26518,BTC100X27,2021-06-10
R10T6Y26603,BTC100X28,2021-06-11
R10T6Y26610,BTC100X31,2021-06-16
R10T7Y20404,BTC100X25,2021-06-04
R10T7Y20500,BTC100X31,2021-06-16
R10T7Y20519,BTC100X36,2021-06-03
R10T7Y20617,BTC100X44,2021-06-14
R10T7Y21104,BTC100X03,2021-06-16
R10T7Y21213,BTC100X12,2021-06-17
R10T7Y21407,BTC100X20,2021-06-13
R10T7Y21512,BTC100X28,2021-06-11
R10T7Y21616,BTC100X37,2021-06-02
R10T7Y22104,BTC100X02,2021-06-06
R10T7Y22208,BTC100X12,2021-06-17
R10T7Y22213,BTC100X14,2021-06-11
R10T7Y22417,BTC100X25,2021-06-04
R10T7Y22614,BTC100X36,2021-06-03
R10T7Y22617,BTC100X37,2021-06-02
R10T7Y23312,BTC100X24,2021-06-05
R10T7Y23414,BTC100X31,2021-06-16
R10T7Y24400,BTC100X21,2021-06-08
R10T7Y24604,BTC100X31,2021-06-16
R10T7Y25106,BTC100X03,2021-06-16
R10T7Y25116,BTC100X06,2021-06-13
R10T7Y25213,BTC100X11,2021-06-09
R10T7Y25305,BTC100X14,2021-06-11
R10T7Y25506,BTC100X30,2021-06-02
R10T7Y26105,BTC100X03,2021-06-16
R10T7Y26613,BTC100X33,2021-06-15
R10T7Y26615,BTC100X34,2021-06-16
