01,9,OS180015
02,14,OS180019
03,18,OS200011
04,16,OS180015
05,38,OS180019
06,27,OS200011
07,16,OS180015
08,33,OS180019
09,25,OS200011
10,31,OS180015
11,9,OS180019
12,54,OS200011
13,1,OS180015
14,17,OS180019
15,17,OS200011
16,100,OS180015
17,350,OS180019
18,40,OS200011
19,100,OS180015
20,40,OS180019
21,140,OS200011
22,100,OS180015
23,140,OS180019
24,350,OS200011
25,140,OS200011
